"user_name","count","count_alias","items","items_alias"
"Lamar Hines",0,4,"[]","[""value_collaborate"",""value_inspire"",""value_lead"",""value_service""]"
"Robert Northam",0,1,"[]","[""snaake""]"
"Rich Sica",0,1,"[]","[""richsica""]"
"Amanda Berkowitz",0,1,"[]","[""amanda-glasses""]"
"Parul Punjani",0,1,"[]","[""mystical""]"
"Jonathan DePascale",0,1,"[]","[""jolene""]"
"James McCarthy",0,1,"[]","[""here""]"
"Leah Rajaratnam",0,2,"[]","[""eyeroll"",""sassy""]"
"Agustina Marini",1,0,"[""dobby""]","[]"
"Elaine Chen",1,0,"[""123""]","[]"
"Ashley Fowler",1,0,"[""verified""]","[]"
"Adri Somoza",1,0,"[""vamoacalmarno""]","[]"
"Brian Addison",1,0,"[""1up""]","[]"
"Aron Mayo",1,0,"[""zoe""]","[]"
"Sebastian Chubanoff",1,0,"[""vader""]","[]"
"Yuki Murakami",1,0,"[""ultraman""]","[]"
"Juliana Fochtman",1,0,"[""tupper""]","[]"
"Pickles",1,0,"[""tot""]","[]"
"Tom Morton",1,0,"[""tomgoodwin""]","[]"
"Tim Wood",1,1,"[""timsmark""]","[""trrademark""]"
"Tim King",1,0,"[""timk""]","[]"
"Joe Taylor",1,0,"[""tiger-king""]","[]"
"Elle Kallista",1,0,"[""threeeyedfish""]","[]"
"Tim Hettler",1,0,"[""thats_the_joke""]","[]"
"Chris Polychronopoulos",1,0,"[""thankyou""]","[]"
"Belen Sauco",1,0,"[""teresita""]","[]"
"Kumi Tominaga",1,0,"[""team-coco""]","[]"
"Robyn Lambert",1,0,"[""taylorbeach""]","[]"
"Guadalupe Gonzalez",1,0,"[""tarrabt""]","[]"
"Rees Steel",1,0,"[""tappedout""]","[]"
"Jessica Joiner",1,0,"[""supersideeye""]","[]"
"Chloe C Cronyn",1,0,"[""adam""]","[]"
"Dawneshia Smith",1,0,"[""adamr""]","[]"
"Shmuel Rosansky",1,0,"[""superman""]","[]"
"Ameet Jani",1,0,"[""sunchips""]","[]"
"Maru Kohan",1,0,"[""sugus""]","[]"
"David 💾 Lillis",1,0,"[""successmatt""]","[]"
"Viviana Maurman",1,0,"[""adeus""]","[]"
"Chris Lee",1,0,"[""stonecold""]","[]"
"Omar Khan",1,0,"[""steve_is_always_right""]","[]"
"Jack Kim",1,0,"[""standup""]","[]"
"Paz Roberts",1,0,"[""sq""]","[]"
"Bradley Inniss",1,0,"[""spidey""]","[]"
"Paul Kim_OLD",1,0,"[""spiderman""]","[]"
"Soledad Gonzalez",1,0,"[""ziii""]","[]"
"Martin Vogts",1,0,"[""skifree-monster""]","[]"
"Mikaila Weaver",1,0,"[""sketch""]","[]"
"Kevin Adato",1,0,"[""silasapproved""]","[]"
"Teddy Black",1,0,"[""airhorn""]","[]"
"Ignacio Manchi",1,0,"[""shrugemoji""]","[]"
"Gabrielle Williams",1,0,"[""shizzle""]","[]"
"Shima Green",1,0,"[""shima""]","[]"
"Aaron Georges",1,0,"[""seand""]","[]"
"Craig Barber",1,0,"[""scotto""]","[]"
"Sebastian Graus",1,0,"[""schwarzbrot""]","[]"
"Jason Dodson",1,0,"[""schreiber""]","[]"
"Barry Wacksman",1,0,"[""schnitzel""]","[]"
"christy westfall",1,0,"[""saxdown""]","[]"
"Charo Picard Waslet",1,0,"[""santiconfundido""]","[]"
"Jan Cassio",1,0,"[""salute""]","[]"
"Hayley Banks",1,0,"[""rulebritannia""]","[]"
"Eric Bee",1,0,"[""rtseesyou""]","[]"
"Edan Michener",1,0,"[""rr""]","[]"
"Pablo Roulet",1,0,"[""rowlet""]","[]"
"Marianne Whitman",1,0,"[""rompis""]","[]"
"Martin Carniglia",1,0,"[""allboys""]","[]"
"Livia Ito",1,0,"[""ally""]","[]"
"Paul McAfee",1,0,"[""rogersalute""]","[]"
"Kristian Laustsen",1,0,"[""roger""]","[]"
"Kelsey Stimson",1,0,"[""ricky_report""]","[]"
"valentin.lombino",1,0,"[""rickyfort""]","[]"
"Stevie",1,0,"[""yip""]","[]"
"Amelia Westerberg",1,0,"[""wine""]","[]"
"Joelle Schweiger",1,1,"[""test""]","[""rgamusic""]"
"Fernando Kral",1,0,"[""rgalogo""]","[]"
"Tim Farr",1,0,"[""rgahustler""]","[]"
"tricia fawls",1,0,"[""reggie""]","[]"
"Gowoon Park",1,0,"[""redbull""]","[]"
"Lais Rogerio",1,0,"[""red-hole""]","[]"
"Amanda Salazar",1,0,"[""real_housewives_cat""]","[]"
"Benjamin Brown",1,0,"[""raisin1""]","[]"
"Catalina Diaz",1,0,"[""andree""]","[]"
"Peter Kay",1,0,"[""psh""]","[]"
"Natasha Angeline",1,0,"[""prideparrot""]","[]"
"Pope Fernandez",1,0,"[""pope""]","[]"
"Deborah Au-Yeung",1,0,"[""pirate""]","[]"
"Jeff Feder",1,0,"[""paypay""]","[]"
"Alexandra Vu",1,0,"[""panther1""]","[]"
"Stalyn Almanzar",1,0,"[""paella""]","[]"
"Katrine Limseth",1,0,"[""ottto""]","[]"
"Sarah Phillips",1,0,"[""otod""]","[]"
"Leandro Duarte",1,0,"[""oqueisso""]","[]"
"Mark Forte",1,0,"[""ooooooooo""]","[]"
"Ana Takahashi",1,0,"[""olar""]","[]"
"Catherine Dailey",1,0,"[""oh_no""]","[]"
"Suzanne Beinfield (๑╹ڡ╹)╭ ～ ♡",1,0,"[""ogre_kyle""]","[]"
"Jane Yoon",1,0,"[""o-snape""]","[]"
"Ian Hinton",1,0,"[""now""]","[]"
"Daniel Ribas",1,0,"[""antifa""]","[]"
"Tyler Bowers",1,0,"[""notgood""]","[]"
"Nicole Goldman",1,0,"[""nikkiworld""]","[]"
"Flaviz Guerra",1,0,"[""nextdog""]","[]"
"Luiz Ottino",1,0,"[""next""]","[]"
"Pablo Distéfano",1,0,"[""nacho""]","[]"
"Cory Nicely",1,0,"[""whoajosh""]","[]"
"Joanna 🍌 Papaleo",1,0,"[""mustache""]","[]"
"Naree Kae",1,0,"[""mood""]","[]"
"Scott Kundert",1,0,"[""montana""]","[]"
"Tim Janczewski",1,0,"[""mono""]","[]"
"misa.kitagawa",1,0,"[""misasmailin""]","[]"
"Katrina Bekessy",1,0,"[""minion""]","[]"
"Jeremy Krall",1,0,"[""minicooper""]","[]"
"Emily Arnold",1,0,"[""millie""]","[]"
"William Prakash",1,0,"[""mikeyee""]","[]"
"Vladimir Ondetti",1,0,"[""mery-happy""]","[]"
"Cristina Lopez",1,0,"[""megan_gunther""]","[]"
"Talía Brigneti",1,0,"[""me""]","[]"
"Wagner Veloso",1,0,"[""mcguime""]","[]"
"Ariel Dan",1,0,"[""atb""]","[]"
"Ramiro Agulla",1,0,"[""mati""]","[]"
"Mauricio Bina",1,0,"[""atemoia""]","[]"
"Sophie Abdi",1,0,"[""marseille""]","[]"
"Bidnam Lee",1,0,"[""mark""]","[]"
"Nakia Sinclair",1,0,"[""malcolm""]","[]"
"Nick Williams",1,0,"[""make""]","[]"
"Tomas Lemos",1,0,"[""macri""]","[]"
"Jeff Dwyer",1,0,"[""lori""]","[]"
"Nelli Quakernack",1,0,"[""lily""]","[]"
"Emily Kearns",1,0,"[""lilemily""]","[]"
"Hector Larios",1,0,"[""awesome""]","[]"
"Chris Volk",1,0,"[""liberty-bell""]","[]"
"Eric Lee",1,0,"[""leprechaun""]","[]"
"Mitul Iyengar",1,0,"[""lena_jacketface""]","[]"
"Grace Wu",1,0,"[""lemur""]","[]"
"REMO",1,0,"[""azucar""]","[]"
"Luz Peralta",1,0,"[""legopini""]","[]"
"Catalina Urizar",1,0,"[""babybart""]","[]"
"Kaitlyn Hieb",1,0,"[""babykaitlyn""]","[]"
"Albert Kim has left R/GA - C U L8R",1,0,"[""leftshark""]","[]"
"Ilya Torgovnikov",1,0,"[""lecreuset""]","[]"
"David Isaacs",1,0,"[""leap""]","[]"
"leah.sorli",1,0,"[""leahs""]","[]"
"Copae Mihai",1,0,"[""bancosul""]","[]"
"David Kerr",1,0,"[""lcfc""]","[]"
"Jefri Zhang",1,0,"[""lavender-field""]","[]"
"Andrew Bowles",1,0,"[""latte""]","[]"
"Ashley Barefoot",1,0,"[""larrydavid""]","[]"
"Kris Kiger",1,0,"[""barf_rainbow""]","[]"
"RobertJames Powell",1,0,"[""barrel""]","[]"
"Jass Sosa",1,0,"[""barry""]","[]"
"Hanan Belarbi",1,0,"[""barrys""]","[]"
"dave hitchings",1,0,"[""lambert""]","[]"
"Laura Martinich",1,0,"[""lala""]","[]"
"Scott Steele",1,0,"[""kungfukenny""]","[]"
"Matthew McGregor-Mento",1,0,"[""ksheehan""]","[]"
"Josema González",1,0,"[""kimk""]","[]"
"Joe Oak",1,0,"[""kimchi""]","[]"
"Alejandro Becerra",1,0,"[""bebesol""]","[]"
"Gabriel Cheung",1,0,"[""keynote""]","[]"
"Adam Daniels",1,0,"[""kermit-tea""]","[]"
"Grace Liu",1,0,"[""kendra""]","[]"
"Jose Rivera",1,0,"[""kcroyals""]","[]"
"Christina Hillman",1,0,"[""kangaroo""]","[]"
"Ricky Vega",1,0,"[""beno""]","[]"
"Jessica Shen",1,0,"[""juiceonverizon""]","[]"
"Charbel Akhras",1,0,"[""jpsbriggs""]","[]"
"Shakeena Marks",1,0,"[""jpmcc-remixtherun""]","[]"
"Hawmi Guillebeaux",1,0,"[""what""]","[]"
"Thais Boaventura",1,0,"[""berta""]","[]"
"Ben Hall",1,0,"[""jj""]","[]"
"Kaliu",1,0,"[""jirafa""]","[]"
"Kristin OHalloran",1,0,"[""jesse_eeyore""]","[]"
"Tom Varacchi",1,0,"[""jerryapproved""]","[]"
"Dorothy Peng",1,0,"[""jehanimal""]","[]"
"Orla Garrigan 🙈",1,0,"[""jeffner""]","[]"
"Blake Kus 🔫",1,0,"[""jeff""]","[]"
"Chris Liu",1,0,"[""jayhawk""]","[]"
"Tommy Carroll",1,0,"[""jamesclear""]","[]"
"Dan White",1,0,"[""james""]","[]"
"Lena Forti",1,0,"[""itslena""]","[]"
"Guy Helson",1,0,"[""ipa""]","[]"
"Rudolph Troncone",1,0,"[""intern""]","[]"
"Juan José Cumba",1,0,"[""inimputable""]","[]"
"Omar Ajmeri",1,0,"[""im_so_d_face""]","[]"
"Mika Park",1,0,"[""ikeamonkey""]","[]"
"Paco Lopez Bonanno",1,0,"[""icardi""]","[]"
"John  Wilson",1,0,"[""hyundai_car""]","[]"
"Erin Graw",1,0,"[""hotlinebling""]","[]"
"Shirley Liang",1,0,"[""hitchbot""]","[]"
"Max Wilke",1,0,"[""hh-ai""]","[]"
"Jormer Marquez",1,0,"[""wat""]","[]"
"stella.rigopoulou",1,1,"[""happy_data""]","[""happy_dt""]"
"Chris Papasadero",1,0,"[""blue-falcon""]","[]"
"Andrew Catchaturyan",1,0,"[""hadouken""]","[]"
"Josh Coe",1,0,"[""guy""]","[]"
"Adrian Barrow",1,0,"[""guru-adrian""]","[]"
"Donald Cook",1,0,"[""gumbucket""]","[]"
"Lucia Pierri",1,0,"[""guille""]","[]"
"Federico Marchionne",1,0,"[""guido""]","[]"
"Danilo Setra",1,0,"[""bobvictor""]","[]"
"Meilissa Lee",1,0,"[""bokuto""]","[]"
"Jessie Bohannon",1,0,"[""gruden""]","[]"
"Blas Madera",1,0,"[""goya""]","[]"
"Prudence Yao",1,1,"[""hehe""]","[""got""]"
"Sarah Paulhus",1,0,"[""googsheets""]","[]"
"Melanie Walters",1,0,"[""goldfish""]","[]"
"Silvio Rivara",1,0,"[""gior""]","[]"
"Eric Howe",1,0,"[""genelu""]","[]"
"Amelia Hancock",1,0,"[""gene""]","[]"
"Pablo Giuffrida",1,0,"[""gallardo""]","[]"
"Benjamin Parisot",1,0,"[""fry""]","[]"
"ella gray",1,0,"[""fruitiger""]","[]"
"Fredzaida Lopez",1,0,"[""frozenblast""]","[]"
"Adam Housman",1,0,"[""botch""]","[]"
"Dan Kashman",1,0,"[""bourbon""]","[]"
"Gaurav Gursahani",1,0,"[""frenchie""]","[]"
"Lucas Dennison",1,0,"[""flossy""]","[]"
"Samantha (Sami) Clarke",1,0,"[""florida""]","[]"
"Lili Clement",1,0,"[""fitness""]","[]"
"Sebastian Vigil",1,0,"[""fan""]","[]"
"Paul Dery",1,0,"[""vin""]","[]"
"Nick Lim",1,0,"[""evolvedbybernisetm""]","[]"
"Rebecca Lemon",1,0,"[""estynhehe""]","[]"
"James Cablis",1,0,"[""esp""]","[]"
"Erin Lynch",1,0,"[""ernorth""]","[]"
"Zoe Law",1,0,"[""eonnerdsun""]","[]"
"William Prakash (Admin)",1,0,"[""enterprise_connect""]","[]"
"Paul Torres",1,0,"[""eiffel""]","[]"
"daniela.rubio",1,0,"[""dva""]","[]"
"Flavio Carvalho",1,0,"[""duo""]","[]"
"Andrea Prieto",1,0,"[""duncan""]","[]"
"Mike Funk",1,0,"[""drinkbleach""]","[]"
"David Koch",1,0,"[""dk""]","[]"
"Tracie Roberson",1,0,"[""byefelicia""]","[]"
"Phil Hawksworth",1,0,"[""ding""]","[]"
"Rollen Gomes",1,0,"[""diglett""]","[]"
"Brad Alan",1,0,"[""darkstore""]","[]"
"Lucila Marini",1,0,"[""dali""]","[]"
"Kate Furey",1,0,"[""daffodil""]","[]"
"Donna Gonzales-Mapagu",1,0,"[""cyclops""]","[]"
"Mitch Kastoff",1,0,"[""cantrill""]","[]"
"Alex Louizos",1,0,"[""cyberpunk""]","[]"
"Dan Baker",1,0,"[""cuse""]","[]"
"Mary Lynch",1,0,"[""cryingcaleigh""]","[]"
"Bruno DiLucca",1,0,"[""covid19""]","[]"
"Jake Lemkowitz",1,0,"[""cousingreg""]","[]"
"Sammi Needham",1,0,"[""corporatechris""]","[]"
"Corey Kindberg",1,0,"[""coreyjump""]","[]"
"Caio Orio",1,0,"[""castro""]","[]"
"Breanne Thomas",1,0,"[""coolsad""]","[]"
"Celeste Escalera",1,0,"[""cookiebyceleste""]","[]"
"Kathryn Slater",1,0,"[""clouds""]","[]"
"Nicolas Pinto",1,0,"[""cloud-ff7""]","[]"
"yufeifei jiang",1,0,"[""climbing""]","[]"
"Zack Dibe",1,0,"[""catface""]","[]"
"Jessica Busch",1,0,"[""christianbutte""]","[]"
"logan kornhauser",1,0,"[""cbd""]","[]"
"Chris Maiorino",1,0,"[""chrism""]","[]"
"Christian Butte",1,0,"[""chokshi""]","[]"
"Martina Perckis",1,0,"[""chill""]","[]"
"Samantha Friedberg",1,0,"[""chicky""]","[]"
"Cara Moccia",1,0,"[""cheese""]","[]"
"Shruti Rai",1,0,"[""chao""]","[]"
"Diana Gonzalez",2,0,"[""furby"",""pleased""]","[]"
"Dmytri Gouba",2,0,"[""groundhog"",""jacks""]","[]"
"Ashley Barrett",2,0,"[""mommylikes"",""whysocomplicated""]","[]"
"Cesar Requena",2,0,"[""cesar-requena-profile-pic"",""gaido-joker""]","[]"
"Martin Luna",2,0,"[""mjolnir"",""sideshowbob""]","[]"
"Andrea Solomon",2,0,"[""arthur"",""arthur2""]","[]"
"Maddison Costello",2,0,"[""cem"",""noface""]","[]"
"Lisa Li",2,0,"[""moonjellyfish"",""mortym""]","[]"
"Marc McLean",2,0,"[""meh"",""mountain-dew""]","[]"
"Carlos Canovas",2,0,"[""satisfy"",""satisfying""]","[]"
"Matheus Talani",2,0,"[""chorao"",""trampando""]","[]"
"Angelines Lago",2,0,"[""alberto"",""mask-parrot""]","[]"
"Patrick McCabe",2,0,"[""mcclave"",""mcclave2""]","[]"
"Keisuke Nakajima",2,0,"[""masao"",""tetsu""]","[]"
"Daniel Armatis",2,1,"[""bunk"",""rickey""]","[""athletics""]"
"Sunny Lee",2,0,"[""cincosideeye-extrazoom"",""cincosideeye-zoom""]","[]"
"Reginald Ross",2,0,"[""clairebear"",""rr_smile""]","[]"
"Mariano Perusso",2,0,"[""atlanta"",""jorgecorona""]","[]"
"Joshua Thompson",2,0,"[""wally"",""wally2""]","[]"
"Lilly Albertz",2,0,"[""alamo_drafthouse"",""rock_the_vote""]","[]"
"Chris McClave",2,0,"[""al"",""esther""]","[]"
"Roberto de León",2,0,"[""catah2"",""karen""]","[]"
"Peter Pawlick",2,0,"[""cloutier"",""foucault""]","[]"
"Christine Creamer",2,0,"[""code"",""skincare""]","[]"
"Jackie Fok",2,0,"[""coffee-bot"",""coffeebot-1""]","[]"
"Giselle Childs",2,0,"[""cold_brew"",""iced_coffee""]","[]"
"nauman hafiz",2,0,"[""colossusangry"",""colossusangry_closeup""]","[]"
"Matt Schreiber",2,0,"[""complex"",""khaled""]","[]"
"Kevin Geruldsen",2,0,"[""cone"",""totinos""]","[]"
"Tom Twiby",2,0,"[""seamus-insane"",""seamus-with-hair""]","[]"
"Akua Harris",2,0,"[""akua"",""akua2""]","[]"
"Albert Sare",2,0,"[""lgtj-goog"",""mild-panic""]","[]"
"Mike Edwards",2,0,"[""coolbeans"",""coolshit""]","[]"
"Andrea Algarra",2,0,"[""cata"",""cata2""]","[]"
"Bruno Botelho",2,0,"[""ponzini"",""ponzini2""]","[]"
"Jeremy Hooper",2,0,"[""lg"",""toosweet""]","[]"
"Brian Nguyen",2,0,"[""murrayeyes"",""susan""]","[]"
"simeonc",2,0,"[""sideeye"",""theeye""]","[]"
"Benjamin Aguirre",2,0,"[""muscleman"",""wwe""]","[]"
"Jess Jabbar",2,0,"[""bad_girl"",""paper-airplane""]","[]"
"Jaclynn Martin",2,0,"[""siemens"",""siemens2""]","[]"
"Joel Simon",2,0,"[""craigu_shaved"",""swiss""]","[]"
"Tommy Lai",2,0,"[""aikcasual"",""aikformal""]","[]"
"Nathan Pulcher",2,0,"[""craycat"",""fail""]","[]"
"Chris Smyth",2,0,"[""plus1"",""plusone""]","[]"
"Katie Cahill",2,0,"[""ladynerd"",""mulan""]","[]"
"Clinton Wong",2,0,"[""kyleackerman"",""wu-unimpressed""]","[]"
"Rodrigo Delduca",2,0,"[""renatoaragao"",""rx""]","[]"
"Jack Suiter",2,0,"[""kugel"",""uncomfortablejack""]","[]"
"Kimverlyn Lim",2,0,"[""crying"",""hypebeast""]","[]"
"Ryan Scott Tandy",2,0,"[""kory"",""spam""]","[]"
"Jules Zogbi",2,0,"[""kim"",""onfire""]","[]"
"Pedro Villalta",2,0,"[""somos"",""tatti_bamba""]","[]"
"Rivkah Tropper",2,0,"[""cardboard"",""homer""]","[]"
"Jessica Bergstresser",2,0,"[""cx-gift"",""limedrop""]","[]"
"Bruno Nogueira",2,0,"[""cao"",""gat""]","[]"
"Victoria Graham PTO til 10.15",2,0,"[""501"",""ellisisland""]","[]"
"Amy!",2,0,"[""amy"",""fundframes""]","[]"
"Kyle Swoyer",2,0,"[""kev"",""kyle_twerk""]","[]"
"Maria Zavala",2,0,"[""andys_evil_twin"",""baby_adam""]","[]"
"Cristina Kuong",2,0,"[""dancesausage"",""totoro""]","[]"
"Calvin Hui",2,0,"[""app-bot"",""fern""]","[]"
"Leonardo Francisconi",2,0,"[""dante"",""pixel""]","[]"
"Ben Pirotte",2,0,"[""kansas"",""seansupermanhair""]","[]"
"Bobby Schultz",2,0,"[""jsx"",""jsx-fail""]","[]"
"Jonathan Liang",2,0,"[""naribear"",""nurseeyeroll""]","[]"
"Ashleigh Elbaz ❤",2,0,"[""david"",""pokemon""]","[]"
"Max Khoun Ala 🍆",2,0,"[""joshw"",""shruti""]","[]"
"Jenny Wu",2,0,"[""jordanandspike"",""jordanhey""]","[]"
"Vani Oza 🌮",2,0,"[""torso"",""vani""]","[]"
"David Newman",2,0,"[""jon_press"",""peter_desouza""]","[]"
"Zachary McKinney",2,0,"[""johnmayer"",""sampler""]","[]"
"Andres SilvaBello",2,0,"[""joaco"",""nutella""]","[]"
"Stu Carnes",2,0,"[""diego"",""histu""]","[]"
"Pablo Muratore",2,0,"[""nelsonhaha"",""riverplate""]","[]"
"Sookie Lee",2,0,"[""sookie"",""sookie2""]","[]"
"Beatriz Ribeiro",2,0,"[""bia"",""diversidade""]","[]"
"Mia Goldstone",2,0,"[""caffeinated"",""mia""]","[]"
"Clari Torres",2,0,"[""sosad"",""timesheet""]","[]"
"David Gifford",2,0,"[""ditto"",""yolo""]","[]"
"Alex Sachaniuk",2,0,"[""but-why"",""muni""]","[]"
"Katie Balloch",2,0,"[""dna"",""lunge""]","[]"
"Tony Kim",2,0,"[""tonytouch"",""voila""]","[]"
"Luke Simshauser",2,1,"[""binchicken"",""yehnah""]","[""yeahnah""]"
"Bruno Lazzaro",2,0,"[""ahre"",""flag-tx""]","[]"
"Eli Chapman",2,0,"[""stanlee"",""tina""]","[]"
"Nicolas Schteinschraber",2,1,"[""bitcoin"",""scam""]","[""btc""]"
"Ashleigh Elbaz",2,0,"[""chanel"",""genep""]","[]"
"Lauren Newton",2,0,"[""stiritup2"",""stiritup3""]","[]"
"Gina Chang",2,0,"[""dpm"",""loj""]","[]"
"Gavin Shapiro",2,0,"[""blankstare"",""flamingo""]","[]"
"Guilherme Campos",2,0,"[""adelso"",""delso""]","[]"
"Kelsie Klaustermeier",2,0,"[""drakehappy"",""interesting""]","[]"
"Beto Bina",2,0,"[""dreamyjosh"",""dylan""]","[]"
"Fernando Suarez",2,0,"[""homedepot"",""jakeli""]","[]"
"Kate Rush Sheehy",2,0,"[""hillary"",""notorious""]","[]"
"Dexter Ho",2,0,"[""adcolor"",""chancetherapperbigday""]","[]"
"Joey Osmena",2,0,"[""heresjohnny"",""redrum""]","[]"
"Viorel Sfetea",2,0,"[""eddie"",""viorel""]","[]"
"Yasmin Malki",2,0,"[""hello"",""lovemore""]","[]"
"Nate Sloan",2,0,"[""edhardy"",""newmtvlogo""]","[]"
"Arthur Calefe",2,0,"[""ehtois"",""neymar-tois""]","[]"
"Mike Wilgus",2,0,"[""ej-vogue"",""notmyface""]","[]"
"Vanessa Leisegang",2,0,"[""antman"",""campbell""]","[]"
"Nicolas Lopez",2,0,"[""elon"",""peaky""]","[]"
"Karina Pino",2,0,"[""emma"",""imbaby""]","[]"
"Ionut Albastroiu",2,0,"[""happyargh"",""heavybreathing""]","[]"
"Amy Power",2,0,"[""hamburglar"",""hamburglar1""]","[]"
"Thomas Gilner",2,0,"[""encouragingkaitlyn"",""unamusedmurray""]","[]"
"Ryan Atkinson",2,0,"[""enter"",""express_scripts_loading""]","[]"
"Derek Chan",2,0,"[""bluehead"",""creeper""]","[]"
"Beth LaRocco",2,0,"[""bluesteel"",""hustler""]","[]"
"Nick Coronges",2,0,"[""españa"",""xteam""]","[]"
"Theresa Eliger",2,0,"[""boba"",""merge-kcs""]","[]"
"Tabi",2,0,"[""tommyw"",""work""]","[]"
"Imran Sheikh",2,0,"[""ethel"",""greta""]","[]"
"Andy Chang",2,0,"[""evernorth"",""maryland""]","[]"
"Marianne Hill",2,0,"[""notsofaq"",""yeehaw""]","[]"
"Sarah Chase",2,0,"[""great"",""onetalk""]","[]"
"Eric Zeleznik",2,0,"[""ew"",""pedalandhide""]","[]"
"Lauren Kostka",2,0,"[""explodyparrot"",""google""]","[]"
"Andres Piccione",2,0,"[""exprimidor"",""platense""]","[]"
"Mark Shu",2,0,"[""anpanman"",""shu""]","[]"
"Tatiana Gallardo",2,0,"[""good-to-go-bow"",""looks-good-to-go-bow""]","[]"
"antonio.guerrero",2,0,"[""aaronperu"",""aaronperu2""]","[]"
"Ryan Davidson 🌲",2,0,"[""gitlab"",""react-spin""]","[]"
"Christian Kugel",2,0,"[""faith"",""george""]","[]"
"Tom Clayton",2,0,"[""bored_panda"",""pinkypromise""]","[]"
"Ivan Roumec",2,0,"[""fede"",""linux""]","[]"
"Danielle Frucci",2,0,"[""ghosted"",""ioc""]","[]"
"Aaron George 🎧",2,0,"[""femalerunner"",""miles""]","[]"
"David Yankelewitz",2,0,"[""90"",""pikachu_amaze""]","[]"
"Santiago Marin",2,0,"[""galactico"",""inter""]","[]"
"Settie Amini",2,0,"[""cheetos"",""stevie""]","[]"
"Katie Edmondson",2,0,"[""braum"",""uterus""]","[]"
"TJ Boegle",2,0,"[""tj_creep"",""tj_face""]","[]"
"Joao Olivetti",2,0,"[""frimorning"",""madcac""]","[]"
"Shige Abe",2,0,"[""bovril"",""nasa""]","[]"
"Ting Xiao",2,0,"[""franklin"",""herespoo""]","[]"
"Julia Aaker",2,0,"[""ali2"",""otter""]","[]"
"Sean Tracy",3,0,"[""airbnb"",""infinity-gauntlet"",""redsox""]","[]"
"Odding Wang",3,0,"[""odenoden"",""restart"",""spotify""]","[]"
"Zach Zimmerman",3,0,"[""boston_sucks"",""dad"",""sugai""]","[]"
"Diego Magallanes",3,0,"[""fingercross"",""paintball"",""yourules""]","[]"
"Luca Grosso",3,0,"[""mimimoji"",""mimoji"",""winkymichael""]","[]"
"Todd Sullivan",3,0,"[""breckdaddy"",""cheers"",""tkap""]","[]"
"robert.burns",3,0,"[""gnome"",""motorcycle"",""travel""]","[]"
"Fran Goitia",3,0,"[""god"",""no_filter_wiznia"",""real_facepalm""]","[]"
"Andres Aparicio 🐵",3,0,"[""andres"",""kevinized"",""wth""]","[]"
"Corey Lewis",3,0,"[""eyesss"",""googey"",""opt-prime""]","[]"
"Karen Orlowski",3,0,"[""brewnuh"",""bruna"",""jackie""]","[]"
"Kevin Miner",3,0,"[""boosie"",""lilboosie"",""youngking""]","[]"
"Lizz Pietrus",3,0,"[""abcarrie"",""bling"",""henry""]","[]"
"Malissa Smith",3,0,"[""greenplus"",""mariah-carey"",""oy""]","[]"
"Jon Hingston",3,0,"[""bond"",""silverfox"",""vangogh""]","[]"
"Tyler Kiggins",3,0,"[""guccimane"",""guccismile"",""itsgucci""]","[]"
"Aisling Cronin",3,0,"[""guinness-pint"",""unilever"",""whiskey""]","[]"
"Arunima Agarwal",3,0,"[""bubly"",""bubly2"",""prackin""]","[]"
"Luis Carlos Pombo",3,0,"[""emoji-black-market-eggplant-condom"",""emoji-black-market-fake-news"",""emoji-black-market-sad""]","[]"
"Liz Zenz",3,0,"[""hanner"",""notyet"",""notyetbot""]","[]"
"Ken Thompson",3,0,"[""chimp"",""mailchimp"",""okeoke""]","[]"
"Diego Santurtun",3,0,"[""havenz2"",""havenz3"",""monka-s""]","[]"
"Bryony Cook",3,0,"[""miet"",""steph"",""toe_ring""]","[]"
"Ginah Kim",3,0,"[""michaelscott"",""screamingdwight"",""smugdwight""]","[]"
"Matias Saldana",3,0,"[""ascendenteen"",""temazo"",""temazoo""]","[]"
"Paul Turzio",3,0,"[""hold-on"",""les"",""quakerzombie""]","[]"
"Alexandra Redd",3,0,"[""christian"",""sass"",""sassyhawmi""]","[]"
"Melissa McEwen",3,0,"[""hypnotoad"",""salad"",""skrillex""]","[]"
"Manuel Belen",3,0,"[""churro"",""maradona"",""maradona2""]","[]"
"Matthew Blackstone",3,0,"[""dragon-harrison"",""hatwobble"",""thaoeye""]","[]"
"EJ Stancil",3,0,"[""cincosideeye"",""kamala-vp-3"",""kamala-vp-4""]","[]"
"Juan Pablo Scigliano",3,0,"[""android_apple"",""kenny"",""kristina""]","[]"
"pablo.caracciolo",3,0,"[""indigo-tribe"",""osiris"",""trials""]","[]"
"Parker Sapp",3,0,"[""bk"",""curious"",""dennison""]","[]"
"Chris Cima",3,0,"[""clogs"",""crocscolors"",""pitchtornado""]","[]"
"Fabricio Teixeira",3,0,"[""botbot"",""br-flag"",""ld""]","[]"
"Ryan Bullock",3,0,"[""doug"",""dougm"",""zal""]","[]"
"Daniel Bollina",3,0,"[""avisei"",""eu"",""fabi""]","[]"
"Nizam Salim",3,0,"[""lmao"",""nizam"",""okay""]","[]"
"Renata Carignani",3,0,"[""agorainvest"",""bradescoprime"",""nextwhite""]","[]"
"Elizabeth Comens",3,0,"[""liz"",""snow"",""talia""]","[]"
"Ethan Wieselthier",3,0,"[""aol"",""captain_planet"",""rgau""]","[]"
"Amie Diamond",3,0,"[""connecticut"",""hamentscen"",""prackin2""]","[]"
"Gonzalo Fiorina",3,0,"[""jgurl5"",""sruj"",""xevi""]","[]"
"Ryan Inkley",3,0,"[""connor"",""paula"",""pumpkinconnor""]","[]"
"Antonella Geminelli",3,0,"[""cata3"",""shrekface"",""_well_""]","[]"
"Andres Juarez",3,0,"[""flow"",""jyj"",""nike1""]","[]"
"Irma Perez",3,0,"[""nasaaan"",""nat"",""wcc""]","[]"
"Danielle Surliuga",3,0,"[""jon_g"",""jon_g_close"",""legere_running""]","[]"
"Molly Carter",3,0,"[""corbmoji"",""eurosport"",""mufc""]","[]"
"Richard Kriheli",3,0,"[""dee"",""hulkster"",""princesymbol""]","[]"
"Rob Gilcrest",3,0,"[""jose"",""psl"",""yankees""]","[]"
"Josephine Holmes",3,0,"[""josephine"",""nojtap"",""voiceofreason""]","[]"
"Jean-Lou Renoux",3,0,"[""aj31"",""jl"",""seriousgabe""]","[]"
"Ashton Mitchell",3,0,"[""davesmassivesweetpotato"",""wiltimes"",""worldslargestsweetpotato""]","[]"
"AJ Tomiak",3,0,"[""aj"",""samkim"",""so_cute""]","[]"
"Emilio Mallia",3,0,"[""benz"",""gavin"",""holisbowie""]","[]"
"Maria Siemann",3,0,"[""carries_evil_twin"",""everythingisfine"",""mets""]","[]"
"Nik Karlsson",3,0,"[""belo"",""market"",""slack_ball""]","[]"
"Jane Fedina",3,0,"[""dancing"",""shitstorm_fixed"",""yoga1""]","[]"
"Pablo Martinez",3,0,"[""damiancuc"",""dcuc"",""humber""]","[]"
"laney.lynn",3,0,"[""backstab"",""canofworms"",""dumpsterfire""]","[]"
"Alex Osman",3,0,"[""snd"",""storey"",""storey_ani""]","[]"
"Consuelo RivasMolina",3,0,"[""bbm"",""coxinhasmile"",""knifechick""]","[]"
"Namhee Kim",3,0,"[""cryin"",""korean"",""nam""]","[]"
"Sebastien Jouhans",3,0,"[""ai"",""ai2"",""sebastienjouhans""]","[]"
"Michael Elenterio",3,0,"[""barb"",""lgbtq"",""lgbtq-network""]","[]"
"Katy 🌹 Moseley",3,0,"[""creepy-ed"",""edstache"",""handsome-ed""]","[]"
"Ben Peppernell",3,0,"[""apparently"",""brooding_andy"",""thao_salute""]","[]"
"Amy Laskin",3,0,"[""cranky"",""cranky-baby"",""verizon-check""]","[]"
"Jason McCoskery",3,0,"[""iquit"",""whatever"",""wtf""]","[]"
"Meryl Swagner",4,0,"[""6g"",""grimace2"",""meryl"",""ohio""]","[]"
"Kevin Lai",4,0,"[""orz"",""otl"",""photoshop"",""ytho""]","[]"
"Mariya Munsey",4,0,"[""evilconnor"",""kombucha"",""ranch"",""spookyconnor""]","[]"
"Joel Goodhall",4,0,"[""joelconfused"",""joelcrazy"",""joelhappy"",""joelneutral""]","[]"
"Paige Maguire",4,0,"[""celeryman"",""disappear"",""nothing"",""slam""]","[]"
"Eloy Anzola",4,0,"[""arepa"",""gitrainbow"",""rgany"",""rga_ny""]","[]"
"justin.hancock",4,0,"[""jon-schultz"",""martha-stewart"",""pelosi-clap"",""todd""]","[]"
"Mahir Yavuz",4,0,"[""dragoneye"",""dragon_m"",""ml"",""swoosh""]","[]"
"Matteo Lamas",4,0,"[""estupidoysensual"",""lgtmatteo"",""lgtme"",""lgtme1""]","[]"
"Kate Newman",4,0,"[""hyundai"",""jonnyzerah"",""jw"",""notbryony""]","[]"
"Federico Fernández",4,0,"[""brunk"",""fort"",""maiame"",""victoria""]","[]"
"Mauro Gonzalez",4,0,"[""genari"",""gnocchi"",""mugatu"",""tije""]","[]"
"Akiko Rokube",4,0,"[""frankenstein"",""kittypryde"",""mario-star"",""psylocke""]","[]"
"Juan Gaspar",4,0,"[""ftb"",""jg"",""mex"",""np""]","[]"
"Lois Kim",4,0,"[""berniemhm"",""bernisemhm"",""hellyakayla"",""kaylaface""]","[]"
"Ben Lloyd",4,0,"[""happpy"",""jason"",""mchappy"",""puku""]","[]"
"caleigh.kimberley",4,0,"[""emodavid"",""emojibetta"",""emoji_james"",""evillemoji""]","[]"
"Stefanie Hoffman",4,0,"[""benandjerrys"",""businesstransformer"",""dreamteam"",""scale""]","[]"
"Robert Montoro",4,0,"[""ali_face"",""kgilb-during"",""kgilb-post"",""kgilb-pre""]","[]"
"Bryant Vu",4,0,"[""floozy"",""larry"",""pleading"",""puppy_eyes""]","[]"
"Haven Russell",4,0,"[""haven"",""notredame"",""solange"",""tde""]","[]"
"Jeronimo Pizarro",4,0,"[""belito"",""leono-uwu"",""maxivue"",""plankingdoggo""]","[]"
"Brian Szabo",4,0,"[""brian"",""jenny"",""krispykreme"",""phil""]","[]"
"Neha Dayal",4,0,"[""elmo_rise"",""top_ramen"",""uncle_tito"",""weary_pup""]","[]"
"Tyler King",4,0,"[""learnmore"",""nextwindow"",""nwp"",""readmore""]","[]"
"Daniel Calligaro",4,0,"[""cuatroenlinea"",""empanadaa"",""jimena1"",""jimena2""]","[]"
"Yok Jackson",4,0,"[""face-palm"",""head-bash"",""slimbrady"",""teagsstar""]","[]"
"Mithru Vigneshwara",4,1,"[""block"",""cartman"",""done"",""todo""]","[""doing""]"
"Camille Magnan",4,0,"[""carloswife"",""charlie-green-chips"",""chips"",""haider""]","[]"
"Pat Diola",4,0,"[""cosmo"",""derp"",""google_1mst"",""side-eye""]","[]"
"A L D O",4,0,"[""aldo"",""evil"",""jackiefok"",""leah_a""]","[]"
"sabine.promberger",4,0,"[""donaldduck"",""goofy"",""mickey"",""olaf""]","[]"
"Bridget Hapner",4,0,"[""arya"",""cersei"",""daria"",""serial""]","[]"
"Jenn Byrne",4,0,"[""hidden"",""nugget"",""pizzaroll"",""tender""]","[]"
"Bogdan Pestritu",4,0,"[""digi"",""nyancat"",""polenta"",""rainbow_nyan""]","[]"
"Juan Linares",4,0,"[""jesu"",""not_impressed_marni"",""terminatorsmile"",""thats_the_tweet""]","[]"
"Aniqa Anwar ♪┏(・o･)┛♪",4,0,"[""chinstrapkyle"",""hairgellesskyle"",""nosedotkyle"",""rawrkyle""]","[]"
"Kyle Conway",5,0,"[""dougiefresh"",""drivinmemadden"",""gabeplus1"",""mysterymachine"",""no-tape""]","[]"
"Soli Moshfeghian",5,0,"[""pj"",""pj2"",""pj3"",""robe2"",""robe4""]","[]"
"Andre Demaio",5,0,"[""kuba"",""lina"",""qotsa"",""tarrabat"",""thumb_reverse""]","[]"
"Anya Wilson",5,0,"[""belarus"",""loshara"",""paola"",""thanksyou"",""vodka_rus""]","[]"
"Lud Sandstrom",5,0,"[""cup"",""edited"",""fennel"",""yuriy"",""yuyu""]","[]"
"Matias Alvarez",5,0,"[""angela"",""fran"",""simo"",""sofi"",""zanni""]","[]"
"Kiwa Kawada",5,0,"[""12cube"",""kobits"",""obits"",""saunaikitai"",""saunner""]","[]"
"Jim Ostler",5,0,"[""cashmoney"",""cryingjordan"",""gregorio"",""samjackson"",""whip""]","[]"
"Ash Mendez 💀",5,0,"[""amen"",""babyhands"",""channelingchase"",""johng"",""storm""]","[]"
"Connor Green",5,0,"[""deadline"",""gold-lion"",""hovering-art-director"",""shit-sandwich"",""wfh""]","[]"
"Amber Kazalbash",5,0,"[""dell"",""prisonmike"",""savage"",""wow"",""wrong""]","[]"
"Claire Badhams",5,0,"[""angry-pointing-lady"",""craig_david"",""danny_dyer"",""danny_dyer_lager"",""ikea_heart_hug""]","[]"
"Pablo Gomez",5,0,"[""digdug"",""excite_biker"",""meow_mask"",""question_block"",""sonic_waiting""]","[]"
"Donnell Jones",5,0,"[""lightsaber"",""masterball"",""pokeball"",""salt_bae"",""this-is-fine""]","[]"
"Marina Viana",5,0,"[""rgapride"",""spfun"",""spgdn"",""splgbtq"",""spwomanup""]","[]"
"Jessica Necor",5,0,"[""avocado-2"",""bossss"",""goodtoknow"",""hr"",""same""]","[]"
"Margo Lowry",5,0,"[""ani"",""ania"",""easybreezy"",""loveboat"",""nobodyputsbabyinacorner""]","[]"
"Silas Law",5,0,"[""doraemon"",""hair-flip"",""sashay-away"",""tonguepop"",""vanjie""]","[]"
"Brad Jacobson",5,0,"[""dotdotdot"",""nom"",""nomzer"",""nom_n_nom"",""tacod""]","[]"
"chris.chun",5,0,"[""catalina"",""cp30"",""spurs"",""wth2_0"",""w_th""]","[]"
"Jacob Payne",5,0,"[""aus-aboriginal"",""rookie_approve"",""rookie_confused"",""rookie_thinking"",""toyota""]","[]"
"Barbara Dambroz",5,0,"[""carols"",""carols2"",""pri"",""zaritus"",""zaritus2""]","[]"
"Sierra Lash",5,0,"[""blackcroc"",""giants"",""muahahaha"",""pinkcroc"",""whitecroc""]","[]"
"Jeff Donios 🐙",5,0,"[""blake"",""genie-2"",""jeff_smurf"",""justube"",""pizzahut""]","[]"
"Christy Randall",5,0,"[""blazer"",""choccake"",""okra"",""okras"",""okras2""]","[]"
"Felix Rompis",5,0,"[""cathy"",""chickenrice"",""chickenrice2"",""cripps"",""gmak""]","[]"
"Carrie Bloms",5,0,"[""norbert"",""packers"",""pongo"",""pongo2"",""pongo3""]","[]"
"Elliot Kort",5,0,"[""burp"",""matzah"",""ned"",""overwatch"",""owlogo""]","[]"
"Tara Marchand",5,0,"[""adele"",""gangnam"",""mcdonalds"",""sf"",""uglysweater""]","[]"
"Cagri Yurtbasi",5,0,"[""alrighty"",""anotherone"",""jazzhands"",""lecreusetcook"",""lecreusetcookbw""]","[]"
"Aaron-Harper Lee",5,0,"[""burns"",""iceking"",""patrick"",""spongebob"",""warriors""]","[]"
"Dylan Boyd",5,0,"[""bunch"",""dontmakeme"",""jbteam"",""jbtravels"",""thefuture""]","[]"
"Marcela Semprum",5,0,"[""edenor"",""nutrilon"",""pickrick"",""pikachu"",""pku""]","[]"
"Teresa Ross 🍉",5,0,"[""blonde-parrot"",""dancing_hotdog"",""more-cowbell"",""nd-dance"",""pizza-spin""]","[]"
"Duncan Hoge",5,0,"[""f-to-pay-respect"",""gan"",""kudos"",""ml-slimeboi"",""parrotcop""]","[]"
"Carlee Benson",5,0,"[""fefo"",""metlife"",""shiseido"",""slides"",""zeplin""]","[]"
"Fernando Cuneo",5,0,"[""argentinaparrot"",""asado_arg"",""meow"",""parrilla"",""worldcup""]","[]"
"Christian Ort",5,0,"[""gangy"",""raspberry"",""seacowee"",""thisisfine"",""yerawizardharry""]","[]"
"Ayesha Hamid",5,0,"[""approved2"",""brainstorming"",""cat-taiyaki"",""do-not-distrub"",""eod""]","[]"
"Cristian Gonzalez",5,0,"[""chico-krusty"",""chicoready"",""maman"",""myman"",""stark""]","[]"
"Stephani You",5,0,"[""pusheen_uni"",""stephanisintellectualproperty"",""sy_dog"",""sy_trex"",""sy_unicorn""]","[]"
"Christina Hirsch",5,0,"[""finger_heart"",""raccoon"",""vfunny"",""wonderwoman"",""wonder_woman""]","[]"
"Masa Tanaka",5,0,"[""derek"",""gabe"",""jonsense"",""niklas"",""scott""]","[]"
"Peter Weon",6,0,"[""airhead"",""jollibee"",""sad_suarez"",""scottydog"",""yzzyazalea"",""zoolander""]","[]"
"Laurent Thevenet",6,0,"[""bobcoin"",""brady"",""codepen"",""daft_pride"",""rollen"",""terminal""]","[]"
"rhonda underwood",6,0,"[""joe1"",""joe2"",""joe3"",""legere"",""ronald"",""spicy-sea-bass""]","[]"
"Corrine Taylor",6,0,"[""anna"",""cornichon"",""corona-parrot"",""lawrys"",""party_try_not_to_cry"",""sigh""]","[]"
"Mauro De Palma",6,0,"[""alb"",""alberso"",""ban"",""hehehe"",""pepe-hardtimes"",""stalin-notification""]","[]"
"Steven Dawson",6,0,"[""buganizer"",""chefo"",""focker"",""injury"",""musictelevision"",""teddy_graham""]","[]"
"Andrew Carmichael",6,0,"[""andrew"",""barrycronin"",""divya"",""henrike"",""mrcampbell"",""roberto""]","[]"
"Shelly Spencer",6,0,"[""allyshipmagnet"",""keanu"",""selfie-2"",""stewart_butterfield"",""stretch"",""target""]","[]"
"Tomas Roggero",6,0,"[""brave"",""eyebrowing"",""joe"",""samurai"",""this"",""yellow-flag""]","[]"
"Martin Tarrab",6,0,"[""elisa"",""maradonaa"",""negroro"",""patorello"",""planetanecesita"",""racing""]","[]"
"Lindsay Orosco",6,0,"[""burke"",""chapman"",""effik"",""irene"",""kylie"",""srhq""]","[]"
"Billy Burkert",6,0,"[""kojima"",""trollbead_chat_happy"",""trollbead_chat_indiff"",""trollbead_chat_sad"",""trollbead_chat_wink"",""trollbead_msghostfighter""]","[]"
"Andrew LaFond",6,0,"[""carousel"",""deadpool"",""juggling-2"",""peasant"",""red_angry_bird"",""rosie""]","[]"
"Matthew Harwood",6,0,"[""bbasoa"",""gfe"",""intensifies"",""kanye"",""matthew"",""ppap""]","[]"
"Meghan Phillips",6,0,"[""gandolph"",""hatersgonnahate"",""hatesgonnahate"",""lfg"",""savedbythebell"",""whiteheart""]","[]"
"Taylor Halsted",6,0,"[""1337-green"",""christy-guy"",""dordt"",""pmoney"",""red-herring"",""uminn""]","[]"
"Marcus Roig",6,0,"[""iris"",""popp"",""popp1"",""sabianao"",""sabianao1"",""vjr""]","[]"
"Kate Sheehan",6,0,"[""apauker"",""babypauker"",""bioderma"",""seanmean"",""sims"",""thenimetyou""]","[]"
"Matt Healy",6,0,"[""chalky"",""doggy"",""harro"",""rufus"",""tmca"",""travolta""]","[]"
"Lachlan McDonald",6,0,"[""boss1"",""boss2"",""ikea"",""ikea1"",""ikea2"",""ikeaparrot""]","[]"
"Josh Williams",6,0,"[""ana2"",""anastasia"",""csb"",""max"",""uswoosh"",""vom""]","[]"
"Sarah Yellen",6,0,"[""disgust"",""disgust2"",""olaf1"",""olaf2"",""olaf3"",""olaf4""]","[]"
"Isabella Oliveira",6,0,"[""barbarianspongebob"",""chloereact"",""fallingmrpeanut"",""ida"",""mrkrabs"",""shimmy""]","[]"
"Sergio Kuba",7,0,"[""afip"",""bebito"",""best-roger"",""brain1"",""jms"",""presto"",""vazquez""]","[]"
"Pablo Bullrich",7,0,"[""ancho"",""charito"",""charo"",""chilavert"",""claritz"",""pablob"",""pepe""]","[]"
"Michael Morowitz",7,0,"[""backface"",""brecker"",""cubs"",""ivan"",""starofdavid"",""yellow_porsche"",""zingle""]","[]"
"Kayla Watson",7,0,"[""bellaboo"",""ghost-boo"",""shell-bell"",""space-cowboy"",""vu-brow"",""vu-brow-zoom"",""vu-brow-zoom-2""]","[]"
"Pamela Fernandez",7,0,"[""cop-doge"",""flori"",""jigglypuff"",""jim"",""lucho"",""pam"",""pil2""]","[]"
"Daniel Tak",7,0,"[""pikachuheart"",""pikachuhuh"",""pikachuwtf"",""sadtony"",""scaryash"",""surprisedpikachu"",""thanos""]","[]"
"Axel Romano",7,0,"[""axel"",""burtmacklin"",""fortnite"",""picabo2"",""psd"",""tommy"",""vaporu""]","[]"
"catalina",7,0,"[""horror"",""horrorcat"",""rocko"",""standbyme"",""standbyme2"",""standbyme3"",""standbyme4""]","[]"
"Alex Sehnaoui",7,0,"[""ha_ha"",""on_it"",""senna"",""ss"",""sss"",""yas_yas"",""zoom_zoom""]","[]"
"Emily Rigdon",7,0,"[""artichoke"",""bump"",""buzzlightyear"",""gummybear"",""nazca"",""social-distancing"",""terminator""]","[]"
"Doc (Diego Pablos)",7,0,"[""doot"",""gendo"",""mediana"",""pb-trusted"",""pb-vip"",""veg"",""veg-half""]","[]"
"David Corns",7,0,"[""cameo"",""osom"",""poly"",""pubg"",""quickbooks"",""sf4ne"",""vinfast""]","[]"
"Ming Chan",7,0,"[""darraghheh"",""laughing-alex"",""wallyhuh"",""wallypuppyeyes"",""wallyruff"",""wallywhaat"",""watashigakita""]","[]"
"Gregory Siegal",8,0,"[""bernie_finger_wag"",""brad"",""captain_america"",""drone"",""harris_trap"",""jordan"",""pittsburgh"",""thor""]","[]"
"Jennifer Vano",8,0,"[""creamsicle2"",""eyebrow2"",""fancybow1"",""fancybow2"",""fancybow3"",""fancybow4"",""italian_ice"",""italian_ice2""]","[]"
"🎷 Ariel Wiznia",8,0,"[""bobpadding"",""jalea1"",""jalea2"",""jalea3"",""jalea4"",""jalea5"",""jalea6"",""latinspots""]","[]"
"Frank Gonzalez",8,0,"[""boozing"",""brainstorm"",""can-of-worms"",""end-of-day"",""giving-up"",""iapprove"",""nailed-it-new"",""winning""]","[]"
"Chris Parker",8,0,"[""bowie"",""bowie2"",""intergalactic1"",""intergalactic2"",""intergalactic3"",""phil1"",""phil2"",""willsmith""]","[]"
"Keith OBrien",8,0,"[""bsd_devil"",""debian_swirl"",""plumiypus"",""popsicle"",""syn-ack"",""tardis"",""taskbunny"",""windows""]","[]"
"michael hirsch",8,0,"[""bulbasaur"",""charmander"",""dataduke"",""poke"",""python"",""squirtle"",""whatup"",""yes""]","[]"
"Stefan Golangco",8,0,"[""cringe"",""iconic"",""mark_pout"",""rupaul"",""shook"",""shook1"",""slay"",""werk""]","[]"
"Yeezy",8,0,"[""beyonce"",""nike"",""nikeair"",""nikelab"",""supreme"",""w33d"",""we3d"",""weed""]","[]"
"Lucas Bolatto",8,0,"[""dancagretch"",""finty"",""gretch"",""gretchen"",""joanne"",""sealing-wand"",""valentina"",""vinagretch""]","[]"
"Ignacio Tischelman",8,0,"[""alf"",""jesse"",""kappa"",""steve"",""trivago"",""watchmen"",""watchmen_gray"",""watchmen_half""]","[]"
"Matt Mortimer",8,0,"[""dherek"",""jasonking"",""jasonking2"",""mybodyisready"",""todd2"",""zuck"",""zucker"",""zuckerberg""]","[]"
"Praise Hong",8,1,"[""chillkids"",""cutekids"",""deadinside"",""iseeyoukids"",""promkyle"",""puretastesbetter"",""puritykids"",""robhands""]","[""savagekids""]"
"Mihaela Arsene-Isbasescu",9,2,"[""aperol"",""doh"",""dug"",""fry_take_my_money"",""gdpr"",""hellhound"",""mm"",""spinner"",""wonderful""]","[""bliss"",""rainbow2""]"
"Dennis Mangrobang",9,0,"[""dieudonne"",""felicia"",""felix"",""filipinoflag"",""ghostery"",""inoy"",""kashyap"",""sung"",""talktothehand""]","[]"
"James Tinsley",9,0,"[""camille"",""nolan-angry"",""nolan-coo"",""nolan-happy"",""nolan-laugh"",""nolan-mad"",""nolan-skeptical"",""nolan-surprise"",""sfmotors""]","[]"
"Eliot Koey",9,0,"[""billgates"",""dreamychris"",""inquisition"",""mensweardoge"",""ocifer"",""singapore"",""singinghealy"",""thuglife"",""truestorybarney""]","[]"
"Ilia Karasin",9,0,"[""crood1"",""crood2"",""crood3"",""crood4"",""crood5"",""crood6"",""crood7"",""crood8"",""crood9""]","[]"
"Lachlan Williams",9,0,"[""bethbrown"",""fabianr"",""frlove"",""frzoom"",""healthineers"",""laurad"",""mdm"",""willdog"",""wup_scroll""]","[]"
"Rene Van Wonderen",9,0,"[""bernisecactus"",""bernisedrunk"",""berniseduck"",""berniseelephant"",""berniseforpresident"",""berniseno"",""berniser"",""ddbw"",""ddddddbw""]","[]"
"Andres Pagella",9,0,"[""disraptor"",""disraptor-logo"",""disraptor-rga"",""everythingsokalarm"",""jack_daniels"",""nini"",""predator"",""real_heart"",""xlburgers""]","[]"
"Cliff Fong",9,0,"[""catalunya"",""coolbeans2"",""dmitrii"",""gavel"",""magic8"",""merge"",""multitasking"",""redbutton"",""screwed""]","[]"
"Emilly Tan",9,0,"[""baward"",""cardib"",""danielle"",""emilly"",""facts"",""josh"",""maddie"",""nak"",""tamika""]","[]"
"Alex Dempsey",9,0,"[""chiitan"",""chiitan2"",""confettigirl"",""frazzledcat"",""guspram"",""mcgarrys"",""pooh"",""poohface"",""pram""]","[]"
"John Erekson",9,0,"[""chef_gussy"",""colby"",""essence_of_john_erekson"",""jerboa"",""philip"",""saneel"",""smell_me_now"",""square-one"",""white_wine""]","[]"
"Augustus Cook",9,0,"[""ch-dove"",""ch-heart"",""ch-house"",""dandad"",""ecosystem"",""henrycook"",""meh_hemsworth"",""tooeasy"",""ww""]","[]"
"alyson.gaiser",9,0,"[""dunc"",""fenskestamp"",""fourloko"",""gopats"",""pacman"",""patriots"",""shame"",""sterling"",""sterlingduchess""]","[]"
"Maya Goldberg",10,0,"[""ewdavid"",""handmaid"",""insta-like"",""love"",""maya"",""purell"",""stick_stickly"",""stratpack2"",""stratpack3"",""stratpack4""]","[]"
"Chloe Briscoe",10,0,"[""facebookpoke"",""lost"",""newman"",""parv"",""parvati"",""play-doh"",""reginageorge"",""shania"",""survivorjeff"",""sxsw""]","[]"
"Thomas Parrinello",10,0,"[""cage"",""hooker"",""hooker1"",""hooker2"",""hooker3"",""hooker4"",""no1"",""no2"",""no3"",""no4""]","[]"
"David Pitts",10,0,"[""allybank"",""beamed"",""disneymickey"",""disneymm"",""dunkindonuts"",""hornito"",""hornitos"",""jimbeam"",""tresg"",""tresgen""]","[]"
"Natalie Liu",10,0,"[""celebrate"",""clapping"",""confusedparrot"",""doge2"",""hamburgerparrot"",""moonwalkingparrot"",""parrotdad"",""pizzaparrot"",""sassyparrot"",""shufflepartyparrot""]","[]"
"Justin Lee",10,0,"[""champion"",""soju"",""soju2"",""telstra"",""telstra2"",""telstra3"",""telstra4"",""telstra5"",""telstra6"",""weezy""]","[]"
"Agustin Raffo",10,0,"[""coyote"",""dientes"",""fogoff"",""munra"",""nada"",""oksaitama"",""oksaitamab"",""sadgorila"",""shutup"",""wateve""]","[]"
"David Holm",10,0,"[""chrisjoyce"",""chucknorris"",""cole"",""corel"",""dave"",""gavin-leader"",""hector"",""marie"",""micah"",""nicole""]","[]"
"Erik Carlson",10,0,"[""boat_parrot"",""chompy"",""cool-cool"",""fat-unicorn"",""poopcream"",""shiba-creep"",""shiba-sad"",""thumbsup_parrot"",""unicorn-dab"",""unicorn-fart""]","[]"
"John Austin Catero",11,0,"[""1-vani"",""adorbs"",""dap"",""dope"",""jonboy"",""lucie_hamster"",""speak"",""tehe"",""ugg"",""unhappywithoutyou"",""woof""]","[]"
"Leah Alfonso",11,0,"[""auntie"",""cooldad"",""death"",""esl"",""eyebrows"",""ithinkitworks"",""rip"",""savmvp"",""timesheets"",""undercut"",""wang""]","[]"
"Layla Molinero",11,0,"[""baby-yoda"",""ballet"",""brenda_walsh"",""hot_sauce"",""luna_tuna"",""rbg-2"",""sears_tower"",""spongebob_kintaro"",""the_bean"",""tiny-fingers"",""tortilla""]","[]"
"Joe Choi",11,0,"[""aw_yeah"",""bananadance"",""fb-heart"",""hamster_dance"",""oslen"",""panda_dance"",""pepperdance"",""robot_confused"",""robot_happy"",""robot_lecture"",""robot_stumped""]","[]"
"Elena Demina",11,0,"[""awesome_ball"",""busyday"",""coronavirus"",""eye-roll"",""get-well-soon"",""internetexploder"",""its_a_feature"",""please_minion"",""smiling_sun"",""twisted_ankle"",""yes_sir""]","[]"
"Philip Rackin",11,0,"[""andy"",""brianmeyers"",""cheddargoldfish"",""rams"",""scottgalloway"",""sourpatch_blue"",""sourpatch_purple"",""sourpatch_red"",""sourpatch_red1"",""volvo"",""warren""]","[]"
"Jacob Jones",11,0,"[""bisexual-flag"",""gay-history-sasha-velour"",""jinkxmonsoon"",""jynx"",""lesbian-flag"",""lesbian-pride"",""productionqueen"",""sasha-history-lesson"",""spear"",""transgender-pride"",""zorro""]","[]"
"Eliana Rodriguez",12,0,"[""bort"",""bort2"",""enl"",""esomeagrada"",""guillem"",""haytabla"",""joke"",""lenny"",""rafa"",""rosco"",""sadnico"",""teacher""]","[]"
"Dave Surgan",12,0,"[""barf"",""batsignal"",""fallopian-fortitude"",""fallopian-fortitude1"",""fried-chicken-2"",""fried_chicken"",""gcp"",""guy-fieri"",""nachos1"",""pigbounce"",""sword-of-omens"",""wutang""]","[]"
"Estyn Jones",12,0,"[""bakerman_tim"",""coffee_pro"",""darraghinisolation"",""diana_spenny"",""frodo_hobbit"",""goldfish_lemon"",""happy_smiley_aron"",""junglejoel_parrot"",""koeyyyyy"",""oh_what_a_patrick"",""red_alert"",""stage_is_mine""]","[]"
"Amanda Wu",12,0,"[""amex_black"",""amex_gold"",""bhallz"",""boba-pour"",""don-tot"",""getawayfrommeh-jack"",""giveup"",""hashbrown"",""icebear-coffee"",""icebear-justice"",""praise-overit"",""soup-dumpling-dunk""]","[]"
"Lena Sorokova",12,0,"[""ancle_sprain"",""ankle_sprain"",""casa_de_papel"",""celticcross"",""chip'n'dale"",""googlemaps"",""money_heist"",""paddle-board"",""shrekcat"",""staythefuckhome"",""zhdun"",""zhdun2""]","[]"
"Terrence McLaughlin",12,0,"[""addis"",""behanny_crying"",""brillopads"",""certified"",""jess"",""karl"",""lolll"",""poot"",""stopexpedia"",""stophillary"",""stopkoddi"",""youtube""]","[]"
"Keith Byrne",12,0,"[""botboi"",""cube"",""fboi"",""freshaf"",""gon"",""gonzo"",""jg10"",""kimmie"",""nice"",""rachel"",""stale"",""vigz""]","[]"
"Laura Zalewski",13,0,"[""bisc"",""chris"",""ella"",""frank"",""jesshair"",""lee"",""lowenstern"",""luca"",""mbusa"",""primo"",""spooky-burke"",""thumb"",""yayy""]","[]"
"Hernan Garchtrom",13,0,"[""0percent"",""bullying"",""escape"",""freddy"",""kirby"",""kirby2"",""milanesa"",""polera"",""polera2"",""pumba"",""pumba2"",""thief"",""trolling""]","[]"
"Ricky Weina",13,0,"[""corona"",""crazydog"",""happy-beef-dog"",""kiwi-bird"",""m-l"",""madden"",""maria"",""mini-moo"",""pacifico"",""pitbull"",""s4moment2"",""stephen-tea"",""world-series""]","[]"
"Sam McGuinness",13,0,"[""atbernice"",""bbernice"",""bernice"",""cider"",""e2bernise"",""ebernise"",""ibernise"",""nbernise"",""oohdesign"",""rbernise"",""sbernise"",""scottandfriends"",""scottsolo""]","[]"
"Fernando Draghi",13,0,"[""barba"",""caruso"",""congalineparrot"",""dealwithit"",""dogecoin"",""estetemaleestuveinvestigando"",""guienso"",""mercadolibre"",""nolenny"",""red_stapler"",""smokemask"",""toasty"",""turnsmeon""]","[]"
"Scott Rothman",13,0,"[""abe_tooth"",""craigu"",""craigu_beer"",""craigu_ok"",""craigu_yukata"",""joel"",""just_in_keisuke"",""masa-sama"",""masa-tooth"",""mentos"",""retsuko"",""sookieyaki"",""william-san""]","[]"
"Mircea Georgescu",14,0,"[""acm"",""adio"",""alin"",""chupacabra"",""crowdcontrol"",""guta"",""lucian"",""mih"",""mircea"",""oana"",""raz"",""royalexecution"",""summerpunch"",""toto""]","[]"
"Rebecca",14,0,"[""assistant"",""bachelor"",""dugong"",""eagle-eyed"",""flamingo_floatie"",""google_assistant"",""google_photos"",""gucci"",""io"",""red_cup"",""sloth"",""snowmobile"",""utah"",""waze""]","[]"
"Nico Viegas Palermo",14,0,"[""ana"",""batman"",""canape"",""cancer-constellation"",""canepa"",""fancywiz"",""flash"",""garch"",""khalil"",""magios"",""robin"",""row"",""schtein"",""toia""]","[]"
"Bayyina Black",14,0,"[""bayyinahuh"",""biggie"",""brooklyn-dodgers"",""huh"",""ilovebrooklyn"",""keurig"",""llama2"",""mikebaker"",""nyc_vote"",""thatpart"",""thatpart2"",""thatpart3"",""tolietpaper"",""vote_2""]","[]"
"Diana Quesada",14,0,"[""bey"",""groot2"",""groot3"",""hansel"",""honey-badger"",""hot-potato"",""lloyd-er"",""lolwhy"",""panther"",""rjp"",""rob"",""russell"",""tbt"",""wingin-it""]","[]"
"Brady Clarke",14,3,"[""angery"",""aphex"",""arnie"",""bradyshaka"",""democracymanifest"",""fiveband"",""getonthebeers"",""gottagofast"",""joelbedroomeyes"",""oldseacaptain"",""paddlin"",""pegasus"",""slimbready"",""stkilda""]","[""angry-react"",""dandrews"",""facebook-angry""]"
"Sean Donnelly",14,0,"[""boomshakalaka"",""cranewife"",""fisappo"",""heh"",""hungrydavid"",""karinasupbrah"",""rachaelstets"",""savannahkarate"",""stets"",""submarine"",""surejan"",""thatssorabin"",""tragicmika"",""traitor""]","[]"
"Ollie Evill",15,0,"[""akbank"",""brandguy"",""brandguyy"",""cat-and-cucumber"",""conevill"",""dazza"",""evillpain"",""indesignguy"",""just-be-gif-01"",""just-be-gif-02"",""just-be-gif-03"",""just-be-gif-logo"",""just-be-gif-logo-lockup"",""saltjay"",""seeevilll""]","[]"
"Felipe Buranello",15,0,"[""alex"",""carlos"",""chico-megan"",""chicosleep"",""chicoway2"",""farah"",""felipeharrypotter"",""heather"",""heather-cake"",""hitim"",""hmm"",""lud"",""pacoquita"",""saldanas-god"",""uuuuhhhh""]","[]"
"Matt VanDzura",15,0,"[""annie"",""avengers"",""bagel"",""fi"",""googleplay"",""hustle"",""hustle2"",""league"",""lego"",""lego_brick"",""play3"",""potw"",""pure"",""tib"",""wr""]","[]"
"Avery McCaffrey",15,0,"[""abinbev"",""alibaba"",""animalcrossing"",""apple2"",""comcast"",""comcast2"",""jandj"",""microsoft"",""nonbinary-flag"",""soniclogo"",""soniclogo2"",""squash"",""virtual-reality"",""virtualreality"",""yanndoussot""]","[]"
"Zoe Hoffman",16,0,"[""away"",""balance"",""brb_1"",""cat-on-keyboard"",""chef-brb"",""heads-down"",""here_1"",""internet-problems"",""kids"",""luvduv"",""mariekondo"",""one-sec-cooking"",""virtual-meeting"",""walking-the-dog"",""waving-from-afar-left"",""waving-from-afar-right""]","[]"
"Nina Kauffman",16,0,"[""44"",""boston"",""brian_sully"",""bueno"",""capitol"",""diet_coke"",""elimanning"",""indiana"",""italian_chef_kiss"",""legobatman"",""peppermint_rolls"",""philly"",""turkey3"",""turkeydog"",""turkeydog2"",""united-states-parrot""]","[]"
"Johanna Silva",16,0,"[""10000"",""cartu"",""florii"",""lalam"",""luchin"",""mew"",""meww"",""mims"",""notouchy"",""pamechan"",""psyduck"",""reir"",""rene"",""shrek"",""woooh"",""wot""]","[]"
"Pilar Taboada",16,0,"[""107"",""abortolegal"",""alber"",""burningman"",""fallofpatriarchy"",""girlscan"",""goldenticket"",""jowi"",""madalfredo"",""maddoggo"",""mimi"",""pil"",""pilita"",""vulpix"",""wonka"",""yesgrl""]","[]"
"Nancy Dasilva",16,0,"[""antonio"",""arthur_beesworthy"",""brooke"",""cheers_brooke"",""cold_brooke"",""col_brooke"",""evil_chef"",""glare"",""janie"",""lost_doobie"",""marvinpeachfuzz"",""marvin_peachfuzz"",""peach_butt"",""readejobs"",""saint_leah"",""slime_wang""]","[]"
"alex papateodoru",16,0,"[""bears"",""bears2"",""blackhawks"",""bucees"",""bulls"",""cubs1969"",""felipeeyes"",""grinchsmile"",""ic"",""icdiablo"",""jumpman"",""lightbulb"",""lowbattery"",""redshell"",""sadchico"",""wflag""]","[]"
"Rogerio Castro",16,0,"[""bjo"",""gooda"",""joao"",""mimo"",""mimo10"",""mimo11"",""mimo2"",""mimo3"",""mimo5"",""mimo6"",""mimo7"",""mimo8"",""mimo9"",""orio"",""orio2"",""toddynho""]","[]"
"Florencia Vilchez",17,0,"[""abed"",""bnnparrot"",""bongo"",""coffeeparrot"",""dork"",""fidgetparrot"",""gentlemanparrot"",""kidney"",""loveparrot"",""michael"",""potterparrot"",""rotatingparrot"",""scienceparrot"",""sonic"",""twss"",""voldemort"",""witnessparrot""]","[]"
"LaDonna Jones",18,0,"[""africa"",""afrotech"",""ben"",""bettyboop"",""blackpanther"",""blacktwitter"",""chase"",""dora_milaje"",""freddie"",""ldj"",""mlk"",""novi"",""olympics"",""roo"",""spoton"",""thisisamerica"",""wakandaforever"",""wakanda_forever""]","[]"
"Tyler Cookson",19,0,"[""asher"",""break"",""brick"",""bunk-the-pug"",""cam-bad-guy"",""cam-says-no"",""cook"",""dadjoke"",""dancing-bear"",""dancing-dino"",""dancingmonkey"",""jwanko"",""layladog"",""missouri"",""mizzou"",""no-prob-bob"",""nopassengers"",""show-me-state"",""sun""]","[]"
"chao.",20,0,"[""kevin"",""weiappear"",""weibook"",""weicici"",""weieyesonyou"",""weiflip"",""weighost"",""weihello"",""weimikedrop"",""weiolange1"",""weiolange2"",""weiolange3"",""weiraindeer"",""weiroll"",""weiroll2"",""weiroll3"",""weisaywhah"",""weiscare"",""weisexy"",""weithick""]","[]"
"Jo Hayes",20,0,"[""barstoolbroseph"",""bfestsammie"",""cheersbiotch"",""coldasshasbrown"",""colderasshashbown"",""dig-ya-own-grave-betch"",""dontatme"",""driedassmango"",""haveitall"",""ineedtolieonthefloor"",""joycejoel"",""macnchez"",""nopenope"",""otters-are-the-best"",""sad_panda"",""straightoutta"",""stratpack"",""thankyouuu"",""thisisfine-stairs"",""wap""]","[]"
"Meg Wubbenhorst",20,0,"[""boredparrot"",""chillparrot"",""congaparrot"",""dealwithitparrot"",""fiestaparrot"",""gothparrot"",""ice-cream-parrot"",""middleparrot"",""oldtimeyparrot"",""parroted"",""parrotwave1"",""parrotwave2"",""parrotwave3"",""parrotwave4"",""parrotwave5"",""parrotwave6"",""parrotwave7"",""rightparrot"",""sadparrot"",""volcano2""]","[]"
"Sam Schwarz",21,0,"[""clinton"",""clinton-disappointed"",""clinton-very-disappointed"",""clinton-very-very-disappointed"",""clinton-very-very-very-disappointed"",""corey"",""fluffr"",""gunk"",""insight"",""jo-disappointed"",""jo-idgaf"",""jo-very-disappointed"",""jo-very-very-disappointed"",""k"",""karina"",""rats"",""seandon"",""very-clinton"",""very-karina"",""very-seandon"",""very-very-clinton""]","[]"
"Kyle Ackerman",21,0,"[""aniqa"",""big_yikes"",""dabs"",""fbpoke"",""glasses_aniqa"",""gobstopper"",""ham_horn"",""handsome_neha"",""kaitlyns_parrot"",""nancy_golfclap"",""naruto_run"",""nerd10"",""nerd11"",""nerd12"",""not_funny_aniqa"",""popeye_ben"",""retweet"",""selfcare"",""upside_down_cowboy"",""yikes"",""yikes2""]","[]"
"John Tubert",22,1,"[""ancestry"",""anchorsteam"",""chappie"",""chappie2"",""conito"",""fab"",""fab-bot"",""fair"",""gteam"",""januaryai"",""leo-dog"",""libby"",""nsfaq"",""pinterest"",""pivotal"",""reddit"",""rgasf"",""stiritup"",""strava"",""svedka2"",""tensorflow"",""yerba-mate""]","[""empanada""]"
"Joseph Wolff",22,4,"[""crit"",""erilee1"",""erilee2"",""erilee3"",""erilee4"",""excitebike"",""g6"",""guts"",""hammertime"",""ianmalcolm"",""johnnycage"",""margarita"",""martini"",""morty"",""moscowmule"",""pickle"",""raptor"",""rga"",""rick"",""shaker"",""shank"",""waterfall""]","[""camry"",""erilee"",""mule"",""prawn""]"
"Nahir Iberra",23,0,"[""blob-dancing"",""blob-hype"",""blob-minion"",""blob-rainbow"",""blob-wave"",""blob-zerogravity"",""blow-roll"",""independiente"",""meow-blush"",""meow-bongo"",""meow-carnival"",""meow-coffee"",""meow-comfnight"",""meow-cool"",""meow-diskette"",""meow-hearteyes"",""meow-melt"",""meow-neutral"",""meow-party"",""meow-party2"",""meow-thinking"",""meow-what"",""piola""]","[]"
"Ben Adams",24,0,"[""canadamilk"",""chaos"",""coolcat"",""corgi"",""excellent2"",""gnome-child"",""hahaa"",""headbang"",""its-magic"",""jack-o-lantern"",""mango2"",""phew"",""pogchamp"",""pottery"",""puppy-eyes"",""que"",""rofl"",""shrug-kanye"",""skype-monkey"",""solo-jazz"",""waffle"",""waggingtail"",""waluigi"",""wutface""]","[]"
"martin.purkart",25,0,"[""brightok"",""huzzah1"",""noproblemo1"",""noproblemo2"",""ok3"",""okaycat"",""okayyy"",""okayyy2"",""okayyy3"",""onya1"",""onya2"",""onya3"",""psh1"",""psh2"",""psh3"",""psh4"",""spunok"",""tanks1"",""tanks2"",""tanks3"",""tanks4"",""tanks5"",""thumbed"",""uuuukay1"",""uuuukay2""]","[]"
"Santiago",25,0,"[""aa"",""g"",""ig1"",""ig2"",""ig3"",""ig4"",""ig5"",""ig6"",""ig7"",""ig8"",""illuminati"",""r"",""ricar"",""ripepperoni"",""smpc1"",""smpc2"",""smpc3"",""smpc4"",""smpc5"",""smpc6"",""trmp1"",""trmp2"",""trmp3"",""trmp4"",""trmptime""]","[]"
"Lucia Rocco",25,0,"[""albertofernandez"",""arrepentir"",""bonou2"",""chocotorta"",""diego-party"",""emosido"",""escarapela"",""escarapela-arg"",""genkidama-1"",""genkidama-2"",""genkidama-3"",""genkidama-4"",""genkidama-goku"",""jpcabello"",""manaos-uva"",""pastafrola"",""pumper-nic"",""re-nemesis"",""roz"",""sailorneptune"",""samid-fight"",""speedy"",""stairs"",""viale-fight"",""witcher""]","[]"
"Derrick Miller",27,0,"[""all_the_things"",""bernie_sanders"",""blue-angels"",""chewy"",""damndaniel"",""doge"",""et"",""excited"",""fabricio"",""gay_pride"",""homer_disappear"",""lol"",""panic"",""parker"",""picard_why"",""poop_gif"",""rainbow_flag"",""sheeran"",""shots-shots-shots"",""slow_clap"",""success_kid"",""surprised_obama"",""thank_you"",""the_more_you_know"",""trans-pride"",""warrior"",""wrong-channel""]","[]"
"William Frean",27,0,"[""biden"",""fball"",""jvg"",""screech"",""ww-butterbeer"",""ww-chamber"",""ww-chocfrog"",""ww-dailyprophet"",""ww-darkwand"",""ww-dobby"",""ww-emoharry"",""ww-gryffindor"",""ww-hermoine"",""ww-hufflepuff"",""ww-nimbus"",""ww-ravenclaw"",""ww-ron"",""ww-slytherin"",""ww-snape"",""ww-snitch"",""ww-snitchgold"",""ww-sort"",""ww-sortinghat"",""ww-teameffort"",""ww-wand"",""ww-wandfeather"",""ww-wingedkey""]","[]"
"Ignacio Frigeni",27,0,"[""agustin_jobs"",""ambulo"",""brit_two"",""capitan"",""cookie_vlad"",""creepy"",""frankie"",""gago"",""gian"",""guy_helmet"",""julys"",""lupini"",""marini_phew"",""msn"",""oiga"",""poquito"",""poquito_brown"",""repeatsame"",""seleccionador"",""sin_tacc"",""sorting"",""thomas_helmet"",""tinelli"",""upside_down_frankie"",""upside_down_ogre"",""wheat_fields"",""wheat_gian""]","[]"
"elvani kusdiana",27,0,"[""approve"",""benihana"",""bisnis"",""boss"",""brooklyn"",""creep"",""e"",""eating"",""eyebrow"",""focus"",""haig"",""jonnyboy"",""kind"",""leah"",""lookin"",""manhattan"",""missnari"",""nancy"",""nerd"",""nooh"",""police"",""posing"",""prosperity"",""serious"",""touch"",""wee"",""yo""]","[]"
"Иicolás Lound",28,0,"[""awesomeface"",""blister"",""checked"",""clip"",""cuca"",""dignity"",""fcat"",""getamen"",""goodmorning"",""grumpycat"",""hedwig"",""higo"",""leooscar"",""low_battery"",""mocking"",""monet"",""muffin"",""netscape"",""nyan_parrot"",""porg"",""portal-blue"",""portal-orange"",""seriouscat"",""seriouscat2"",""thwoorp"",""tooth"",""wainting"",""whistle""]","[]"
"Reade Maier",28,0,"[""alsothis"",""berlinjack"",""bernisewong"",""censoredtaylor"",""chainsaw"",""charcuterie"",""claratin"",""claritin"",""cueball"",""digitalprophet"",""ellenpage"",""hairgel"",""imanotarypublic"",""interestingreade"",""juul"",""juulpod"",""lamb"",""lennykravitzscarf"",""longisland"",""marchmadness"",""mariah"",""marieantoinette"",""matrix"",""moose"",""rigby"",""sweetsweetmark"",""whiteclaw"",""zodiac""]","[]"
"Rylan Crooks",29,3,"[""1000"",""3dots"",""addreaction"",""addreaction2"",""aji"",""catmeme1"",""catmeme2"",""cornocopia"",""datboi"",""dognose"",""drake1"",""drake2"",""dumb"",""etheljones"",""exit"",""eyesbloodshot"",""handgrenade-nola"",""kamala-vp"",""kamala-vp-2"",""krs1"",""nj"",""orange-goose"",""platypus"",""staffingslayer"",""stonks"",""tumbleweed"",""white-elephant"",""wv"",""zillow""]","[""elephant-white"",""thanksgiving"",""thxgiving""]"
"Sean Kile",29,1,"[""aaron-pollick-gross"",""apex_legends"",""cathy-ack"",""dark-souls-solaire"",""drdisrespect"",""ds_knight"",""ds_onion_knight"",""ds_sun_bro_knight"",""fffffffffffff"",""lolol"",""maxine_waters_reclaiming_time"",""milk-bone"",""napoleon_dynamite"",""peace_kris_white"",""pedro_napoleon_dynamite"",""sanic"",""seankile"",""skeptical_tim"",""sonos"",""starcraft"",""steam"",""super_meat_boy"",""tara_moss"",""taylor_beach"",""thumbs_up_cool_sam"",""twitch_verified"",""u_mad_bro"",""vr"",""what_duncan""]","[""milkbone""]"
"Fly",30,0,"[""500"",""93"",""anarchy"",""autodraft"",""bestleah"",""buzzkill"",""byrne"",""canneslion"",""champ"",""costanza"",""dooley"",""goldswoosh"",""guyh"",""iheartny"",""jusstin"",""justinfly"",""lacroix"",""lemkowitz"",""mrjfly"",""nagl"",""noice"",""payfly"",""payfly2"",""poppygun"",""seinfeld1"",""sohohouse"",""trash"",""trashbag"",""zim"",""zobe""]","[]"
"Andrew Gleason",30,2,"[""angry_mob"",""big-brother"",""c"",""challenge-accepted"",""clown"",""coys"",""dinosaur"",""eclipse"",""golang"",""gold-star"",""gold-star-covered-in-shit"",""google-burger-2"",""heisenberg"",""java"",""jolly-roger"",""n"",""ninja"",""nyc"",""pitchfork"",""portal"",""putin"",""sia"",""texas"",""timesheet-cop-1"",""timesheet-cop-2"",""timesheet-cop-3"",""timesheet-cop-4"",""timesheet_cop"",""tt"",""y""]","[""no"",""tottenham""]"
"Claire Koen",30,0,"[""anonymouspumpkin"",""aurora"",""bigbigboss"",""buble"",""complicated"",""dearwester"",""defnotsafe"",""f"",""gals"",""hillben"",""ixpandbase"",""ixpandflash"",""jesseyes"",""loveeli"",""lovenicole"",""mycloudhome"",""nichedrama"",""receipts"",""s4moment"",""stopdevin"",""stopdominique"",""stopeli"",""stoplifewtr"",""stopliz"",""terrence"",""thxs"",""tkapbelt"",""tldr"",""whoisshe"",""worldwide""]","[]"
"Wade Wojcak",31,0,"[""birb"",""bongoblob"",""bongoblobangry"",""bongobloblove"",""bongoblobsad"",""bongocat"",""bongocatgame"",""bongocatkeyboard"",""bongocatpixel"",""concerned"",""ffxiv-catuar"",""ffxiv-meowcobo"",""ffxiv-mewgle"",""ffxiv-tonpurry"",""food-1"",""food-2"",""food-3"",""food-4"",""frog1"",""frog2"",""goose"",""goose-knife"",""honk"",""magic"",""oof"",""partykeanu"",""pika"",""rak"",""slime-lol"",""stab"",""thonk""]","[]"
"Jameန Slater",31,0,"[""aliensguy"",""back_away"",""bmo"",""brazilparrot"",""carlton"",""cobra_kai"",""currytroll"",""dickbutt"",""ewok"",""facepalm_picard"",""farnsworth"",""feelsbadman"",""finn"",""fuck_nope"",""jake_wink"",""kanye_west"",""mind_blown"",""mj"",""nope"",""not_bad"",""poop_animated"",""psa"",""psa_png"",""rebel"",""rock"",""ron_swanson"",""slaterj_smile"",""watch_out"",""whoa"",""yay"",""zoidberg""]","[]"
"Angus MacDonald",32,0,"[""3dfish"",""aguirre"",""autobot"",""autobot-ca"",""camry-photo"",""canada-parrot"",""dance-fallout"",""dancingcharmander"",""dancingshark"",""deadfish"",""dory"",""dunkey"",""explosm"",""fightmefish"",""fingers-crossed"",""fishbones"",""glue"",""golden-gate"",""gsd"",""launch"",""maple"",""mtv"",""nes"",""nescontroller"",""no-"",""salt"",""shrugg"",""snescontroller"",""toronto"",""totempole"",""toughfish"",""wololo""]","[]"
"Teags Humm",33,0,"[""blob-fish"",""bluebag"",""bubble-tea-01"",""bubble-tea-02"",""bunnings-snag"",""cat-loading"",""celia-melbs"",""chattering-teeth"",""dancing-gopher"",""ebi-katsu"",""figma"",""gracie"",""gummi-venus"",""japan-cat"",""johnny"",""loops"",""loops-cat"",""mario-banana"",""mario-hammer"",""mario-walking"",""mermaid-doggo"",""mighty-boosh-head"",""mr-sparkle"",""mr-sparkle-pink"",""mustard"",""pink-donut"",""rainbow-doggo"",""sushi-cat-pickle"",""sushi-cat-yellow"",""taco-dance"",""top-hat-blob-fish"",""wework"",""yokstar""]","[]"
"Aramis Grey",33,0,"[""applie_pie"",""bahhumbug"",""bmo-dance"",""bmo-happy"",""car_blue"",""codereview"",""confetti"",""escape-2"",""familylink"",""finn-jake"",""finn_dance"",""goodluck"",""hi"",""high-five"",""iceking-fly"",""iceland-icon"",""improved"",""io2019"",""jake-blink"",""jake-wag"",""lemongrab-ohplz"",""lmgtfy"",""lsp"",""redwood"",""shivering"",""st-george-terroir"",""supercell"",""switzerland-flag"",""table-flip"",""takeout"",""us-icon"",""whitman"",""yoshi""]","[]"
"Wei-Wei Huang",34,0,"[""bizupfrontpartyatback"",""chaoahhh1"",""chaoahhh2"",""chaoahhh3"",""chaoahhh4"",""chaolavaya"",""chaomicdrop"",""chaosaywut"",""chaowooyuh"",""dim"",""dimfather"",""dimlicious"",""dimlike"",""dimnoeat"",""dimsan"",""dimsaywut"",""dimsaywut2"",""dimsaywut3"",""dim_aintgotnotime4u"",""drewluvsu"",""elliotgotu"",""elliotgotu2"",""elliotgotu3"",""jordanhello"",""liftandshft"",""minhhello"",""minhlike"",""robapprove"",""robfixdis"",""roblike"",""robnolike"",""robnotimpressed"",""robsurprised"",""transformationatspeed""]","[]"
"Wasif, Cha brewer",35,0,"[""blob-drool"",""dalek"",""dalek2"",""dnd"",""eyetwitch"",""gudetama"",""gudetama_face_down"",""gudetama_lying"",""gudetama_picking_nose"",""gudetama_scratch"",""haskell"",""kamina"",""kamina-glasses"",""mexinyan"",""monocle-3"",""nodejs"",""nyancat_big"",""nyancat_trail"",""omg-cat"",""pipe"",""poopfire"",""portland"",""python-2"",""rolling-bb8"",""scheme"",""sheepy"",""simon"",""textmate"",""tie-fighter"",""tie-fighter-2"",""walrus"",""word"",""wtfjackie"",""yeahhhh"",""yuno""]","[]"
"Jessie Morton",36,0,"[""100blob"",""airsteam"",""avocado_love"",""babyyoda"",""bob_ross"",""bruised_pig"",""bucket"",""celine"",""claridryl"",""didgeridoo"",""fidget_spinner"",""gangster"",""handcuffs"",""jetspizza"",""lifewtr"",""llama"",""lobster"",""mario_luigi_dance"",""michigan"",""mich_state"",""momentoflift"",""nicholas_cage_party"",""ninja2"",""osu"",""peas"",""police_light"",""red_panda"",""red_pop"",""sparty"",""thanks"",""thinking_blob"",""tow_truck"",""walker"",""wfh2"",""yoda_todd"",""zebra""]","[]"
"Agustín de Cabrera",37,6,"[""apple-inc"",""asado"",""beacon"",""bob"",""bocajrs"",""bsg"",""bsg_half"",""cylon"",""cylon_half"",""diver"",""dulcedeleche"",""durian"",""elvis"",""enie"",""estimote"",""excellent"",""facepalm"",""flag-eu-not"",""guineapig"",""hangouts"",""ipg"",""lisnr"",""lourdes"",""manodedios"",""mate"",""medialuna"",""moodstocks"",""nikefuel"",""peron"",""red_card"",""sea_lion"",""shark-2"",""swift"",""taladro"",""uber"",""vino"",""yellow_card""]","[""agujereadora"",""drill"",""malbec"",""roulet"",""scuba_diver"",""sealion""]"
"Antonio Junior",37,0,"[""deleted"",""deleted1"",""deleted2"",""deleted3"",""deleted4"",""deleted5"",""deleted6"",""emoshit1"",""emoshit2"",""emoshit3"",""emoshit4"",""emoshit5"",""emoshit6"",""emoshit7"",""emoshit8"",""emoshit9"",""heik1"",""heik2"",""heik3"",""heik4"",""heikkk"",""pow1"",""pow2"",""pow3"",""thuglife1"",""thuglife2"",""thuglife3"",""thuglife4"",""will1"",""will2"",""will3"",""will4"",""will5"",""will6"",""will7"",""will8"",""will9""]","[]"
"Adam Reninger",39,0,"[""99"",""aba"",""adammaria"",""beats"",""bruce1"",""cultureamp"",""darko"",""frasier"",""fuckitbucket"",""garfield"",""garfield2"",""happylifewtrdog"",""heylisten"",""hmmm"",""justdoit"",""kenya"",""koolcat"",""lionel"",""marges"",""mariaadam"",""ohbaby"",""phil_the_intern"",""picabo"",""reverendadam"",""rgatat"",""rickroll"",""rick_weina"",""seniors"",""sippin"",""sippin2"",""slackface"",""spiderpix"",""stay_humble"",""subway"",""sunset"",""thirsty-vendor"",""trvl"",""wfhsick"",""yougotitdude""]","[]"
"Shirley Brady",39,0,"[""5g"",""amazon"",""bart"",""book-love"",""data-star-trek"",""escher"",""espn"",""facebook"",""fleabag"",""frito-lay"",""hbo"",""instagram"",""iron-man"",""linkedin"",""netflix"",""np-no-problem"",""oscar"",""pepsi"",""pied-piper"",""pigeon"",""quibi"",""racetrac"",""red-packet"",""samsung"",""snapchat"",""telegram"",""tiktok"",""tiktok-drool"",""tintin"",""tom"",""twitch"",""twitter"",""twitter-bird"",""uber-logo"",""uniqlo"",""verizon"",""walmart"",""whatsapp"",""zoom""]","[]"
"Heather Serpico",41,0,"[""applepie"",""burger"",""candiedapple"",""cereal"",""cheeks"",""cheeseburger"",""creamsicle"",""cremebrulee"",""croissant-2"",""cupcake"",""dadcoffee"",""donut"",""doritos"",""edamame"",""flan"",""footy"",""fudge"",""gobills"",""gummyworms"",""ham"",""headbash"",""islanders"",""jets"",""juice"",""kebab"",""log"",""macandcheese"",""magpies"",""milk"",""mrmet"",""nigiri"",""nymets"",""onigiri"",""poptart"",""sandwich-2"",""serpico"",""slurpee"",""smore"",""soup"",""steak"",""water""]","[]"
"Ghost of Joe Wanko",45,5,"[""aussieparrot"",""avocado-toast"",""ball"",""butter"",""criminal"",""dance"",""djkhaled"",""dongle"",""drunk"",""el_chapulin_colorado"",""flag-fu"",""flag-poo"",""fml"",""foos"",""foosball"",""ford"",""fthis"",""groot"",""ie9"",""jp_lgtm"",""louisiana"",""mic_drop"",""mtv_animated"",""nahbruh"",""nod"",""oprah"",""partyparrot"",""plum"",""plus-one"",""plus-one-multicultural"",""puke"",""rafiki"",""rumham"",""samsung1"",""samsung2"",""samsung3"",""shadybear"",""shuffleparrot"",""stoppit"",""swearing"",""tina_dancing"",""titanium"",""wahh"",""woot-off"",""working-late""]","[""deuces"",""parrot"",""pingpong"",""politically_correct_thumbs_up"",""sadface""]"
"Chico Valencia",52,0,"[""bosss"",""ch33"",""che-bob"",""che-bob2"",""chico-cage"",""chico-gold"",""chloe"",""dre-1"",""dre-10"",""dre-11"",""dre-12"",""dre-2"",""dre-3"",""dre-4"",""dre-5"",""dre-6"",""dre-7"",""dre-8"",""dre-9"",""emo"",""emo-j"",""eyes2"",""fan2"",""feels-real-good"",""feels-stressed-man"",""feelsgoodman"",""felipe"",""g-juan"",""h00p"",""ha"",""havenz"",""helpbot"",""ic01"",""ic02"",""ic03"",""ic04"",""ic05"",""ic06"",""ic07"",""ic08"",""ic09"",""ic2"",""israel"",""jblack"",""not"",""rael01"",""rael02"",""rael03"",""rael04"",""ric3"",""roldan"",""tino""]","[]"
"Kyle Bunch",59,0,"[""aceandgary"",""austinfc"",""bobafett"",""brutus"",""brutushead"",""bucee"",""c3po"",""caged"",""coopersmith"",""coopersmith2"",""crystals"",""darthvader"",""didyouseethis"",""edgar"",""grimace"",""gsvs_blue"",""gsvs_white"",""happy"",""harambe"",""harambexmas"",""imwithher"",""intermiami"",""joeybats"",""kermit"",""kylo"",""la"",""ladyraisin"",""lakers"",""lakeshow"",""larams"",""lazer"",""leia"",""luv"",""miamicf"",""morris"",""nachos"",""nugent"",""oh"",""ovipositor"",""pitpat"",""poomoji"",""pop"",""r2"",""raisin"",""rkelly"",""snipes"",""spur"",""stormtrooper"",""the-emoji-formerly-known-as-prince"",""tommydab"",""tommydance"",""tommystatue"",""tommytrojan"",""trojan"",""turnpike"",""usc"",""uschelmet"",""xwing"",""yoda""]","[]"
"Bernise Wong",60,0,"[""andy-areyousure"",""andy-aw"",""andy-meh"",""andy-no"",""andy-okk"",""andy-ooo"",""andy-um"",""andy-youfunny"",""bw-letmesee"",""bw-three-bw"",""corey-thinking"",""corey-whatdoyousay"",""harry"",""iamterrence"",""jackson-thinking"",""jackson-whatsup"",""jolene-happy"",""jolene-thinking"",""jolene-veryhappy"",""lois-bruh"",""lois-deepthought"",""lois-happy-happy-im-so-happy"",""lois-lookatme"",""lois-owww"",""lois-talktomymouth"",""loisamilaughing"",""loiskim"",""loisthefuckyoutalkingabout"",""loisyouneedtostopnow"",""queenbecca"",""queenbecca2"",""queenicolina"",""queenleah"",""rene-checkmeout"",""rene-fd"",""rene-firefighter"",""rene-german"",""rene-happykid"",""rene-kingdom"",""rene-korean"",""rene-looking"",""rene-newyork"",""rene-quarantine-whoareyou"",""rene-rabbit"",""rene-russian"",""rene-teddybear"",""rene-teddybear-zoom"",""rene-thinkinghard"",""rene-wintrt"",""rene-youth"",""reneandfriend"",""renebaby"",""renehappybaby"",""reneinred"",""sammyfriend"",""teamtom"",""teamtom1"",""thequeenalexis"",""xj"",""xjmoves""]","[]"
"Alexis Waller",74,0,"[""2020kiss"",""adri"",""alexchef"",""alexdempsey"",""alexvu"",""annelise"",""barryw"",""bernise"",""bethany"",""be_best"",""brandon"",""brigit"",""bruno"",""caren"",""cattyping"",""christianslater"",""chromedino"",""colorwheel"",""conrad"",""cool_doge"",""coreyl"",""coreylewis"",""davidtoma"",""eon"",""eon_axel"",""eyesup"",""gavinshap"",""ghostbusters"",""giselle"",""goinginsane"",""gus"",""haley"",""heezoo"",""idk"",""julianna"",""katieballoch"",""katybassano"",""kayla"",""laundry"",""like"",""loading"",""malissa"",""marci"",""napoleon_yuss"",""nursehero1"",""patagonia"",""pia"",""rachelc"",""rachelcantrell"",""radar"",""rafael"",""reade"",""reese"",""rudechef"",""ruderchef"",""saltyscott"",""salute2"",""samdownunder"",""scot"",""scotcrop"",""scotgif"",""scotpaper"",""scottchef"",""scottsfriends"",""seagul"",""seagul_dumb"",""shopify"",""spaceballs"",""stalyn"",""tanja"",""tatiana"",""timeout"",""tobilutke"",""weeknd""]","[]"
"Brian Sullivan",75,1,"[""alfajore"",""allclap"",""allyourbase"",""angus"",""awesome-o"",""ayayay"",""ayyy"",""badjoke"",""billnye"",""bobdobbs"",""booom"",""brb"",""brit"",""calamity"",""clippy"",""cobra"",""ctoa-1"",""ctoa-2"",""ctoa-3"",""ctoa-4"",""ctoa-5"",""cussing"",""d20"",""developers"",""dino"",""elvis2"",""fastparrot"",""fonz1"",""fonz2"",""fonz3"",""fonz4"",""frink"",""gads"",""goopoo"",""grassyass"",""haha"",""lgtjf"",""lumbergh"",""milton1"",""milton2"",""milton3"",""milton4"",""mrhankey"",""mtvmoonman"",""mutombo"",""nerd1"",""nerd2"",""nerd3"",""nerd4"",""nerd5"",""nerd6"",""nyet"",""ohyeah"",""paola2"",""pe"",""pentagram"",""poppins"",""ralph"",""sbkintaro"",""shitsammich"",""shitstorm"",""sisyphus"",""slamdunk"",""stackoverflow"",""super"",""tcb"",""thed"",""trainwreck"",""tubert"",""walter"",""wasif"",""why"",""win32"",""yodawg"",""youbigdummy""]","[""amirite""]"
"David Yang",91,0,"[""100-bells"",""1k-bells"",""2020-calendar"",""6-foot"",""99k-bells"",""acnh-apple"",""acnh-cherry"",""acnh-coconut"",""acnh-fearful"",""acnh-mistaken"",""acnh-orange"",""acnh-peach"",""acnh-pear"",""acnh-scorpion"",""acnh-watering-can"",""animal-print-mask"",""arowana"",""asshole-goose"",""aww-yeah"",""axe"",""baby-yoda-soup"",""bells"",""bitterling"",""blathers"",""blue-marlin"",""clay"",""cliff-construction-permit"",""clump-of-weeds"",""coelacanth"",""dace"",""dancing-woman"",""deflated-football"",""earth-egg"",""emilyfare"",""fomo"",""footie-pajamas"",""giant-water-bug"",""gold-nugget"",""handsanitizer"",""hi-from-home"",""infinity"",""iron-nugget"",""laptop-yoga"",""leaf-egg"",""loach"",""mahi-mahi"",""malibu-stacy"",""medical-gloves"",""oarfish"",""ocean-sunfish"",""olive-flounder"",""pietro"",""playstation"",""ranchu-goldfish"",""red-snapper"",""redd"",""ribbon-eel"",""salt-shaker"",""sea-bass"",""seahorse"",""sean"",""shorts"",""shovel"",""sky-egg"",""snacks"",""spoiled-turnip"",""stegosaurus"",""stinkbug"",""stone"",""tallboy"",""tarantula"",""taylor-forest-green"",""this-is-fine-fire"",""tie-dye-mask"",""timmy-and-tommy"",""toilet-paper-mega-pack"",""tom-nook"",""tuna"",""turnip"",""tv-exercise"",""virus"",""water-egg"",""waterscaping-permit"",""wfh-man"",""wfh-woman"",""wood-egg"",""work-on-top"",""yellow-chartreuse"",""zipper-t-bunny"",""zoom-laptop"",""zoom-phone""]","[]"
"Camille Reisfield",354,0,"[""1-2-punch"",""air-quote"",""air-quotes"",""allo-love"",""almond"",""alpaca"",""andy-dwyer"",""angelblob"",""annoy"",""appointment"",""areyoukidding"",""arthur-dance"",""asana"",""avocado-dance"",""aww-pug"",""awww"",""awwww"",""axolotl-pink"",""babyyodapod"",""bacteria"",""baking"",""banana-art"",""banana-split"",""barbecue-1"",""basque"",""batman-watches-over-us"",""batmanonit"",""be-free"",""beagle"",""bear-dance"",""beard"",""beg"",""bert_ernie"",""bigote"",""bingo"",""birthday-cake"",""black-panther"",""blm"",""blob-cat-doggo-love"",""blow-kiss"",""boulder"",""breakfast"",""brisket"",""broken-record"",""bruce-wayne"",""buggy"",""bulldog"",""bun"",""burning-money-1"",""burning-money-2"",""business-cat"",""bye-boo"",""cactus-dance"",""california"",""california2"",""cannon"",""cannon-2"",""catchup"",""catcoffee"",""catdog"",""chai"",""champagne-pop"",""change-jar"",""checklist"",""cheer"",""cheers-beer"",""cheers-champagne"",""cheers-lacroix"",""cheers-wine"",""cheetos-hand"",""chonky-beagle"",""choripan"",""cinderella"",""circus-fire"",""clean"",""clippy-2"",""closed"",""coconut-1"",""comic-sans"",""computer-fire"",""confused-aussie"",""confused_dog"",""cookie-eat"",""cool-dog"",""coupon"",""cowboy-tip"",""cupcake2"",""cupcake3"",""curtsy"",""cute"",""cybage2"",""cynthiadoll"",""dafuq"",""dalmatian"",""dance-bugcat"",""dance-chick"",""dance-octopus"",""dance-snoopy"",""danceblob"",""dancewithrose"",""danceydoge"",""dancing-penguin"",""dancing-pika"",""dancing-pizza"",""dc"",""decision"",""dim-sum"",""disappointed_dog"",""discord2"",""doge_finger_guns"",""doggo_blob"",""dog_cool"",""drake-dance"",""drone2"",""einstein-1"",""excited-dog"",""expresso"",""eye-of-sauron"",""eyes-roll"",""fact"",""fan-ac"",""fernfirnhaber"",""fieri_parrot"",""fika"",""finger-wag"",""fingerguns"",""fire-away"",""fire-extinguisher"",""fist-bump-2"",""fistbump"",""floss-avocado"",""floss-heart"",""fog-sf"",""food-truck"",""freedom"",""friendshipbracelets"",""fullstop"",""funfacts"",""fwends"",""g4sb"",""gandt"",""gangnam-dance"",""genius"",""genius-einstein"",""giants2"",""gin"",""ginandtonic"",""gingerbreadhouse"",""gingerbreadman-shrek"",""glowstick"",""gmb"",""gold"",""googleforsmallbusiness"",""go_dog_go"",""grandma-dance"",""grill"",""guy-fieri-chef-kiss"",""hand-sanitizer"",""handmaid-2"",""hangry"",""happy-birthday"",""hawkeye-blackwidow"",""heart-attack"",""heart-dance"",""hearteyes"",""help"",""hippie"",""home"",""home-garden"",""hot-seat"",""hug"",""hulk-smash"",""hungry"",""hungry-bear"",""hyper-cat"",""hyper-ghost"",""icecreampint"",""inconceivable"",""internet"",""ironman-dance"",""it-crowd-jen"",""it-crowd-moss"",""it-crowd-roy"",""it-wasnt-me"",""its-it"",""itsatie"",""jamesoooo"",""jamestinsley"",""jealousy"",""joke-time"",""karl-fog"",""ketchup"",""kevin-home-alone"",""kingofmemes"",""knight"",""kraken"",""lasagna"",""let-me-in"",""lgtm-thumbsup"",""lifesaver"",""loading-pizza"",""lookout"",""low-battery"",""lunch"",""lunch-with-friends"",""lusca"",""mate-2"",""matryoshka"",""may-the-odds-be-in-your-favor"",""meatballs"",""mendel-octopus"",""meowcoffee"",""meowcorgi"",""meowpopcorn"",""meow_firefighter"",""mine"",""minnie"",""mochi"",""monkey-dance"",""mooncake"",""mr-clean"",""muchacha-1"",""muchacha-2"",""muchacha-3"",""muchacha-paws"",""mustache-1"",""naptime"",""no-blob"",""nutcracker"",""octopus-google"",""officemichael"",""okayyes"",""one-two-punch"",""ornament"",""oversight"",""panda-dance"",""pao-de-queijo"",""parrot-angel"",""parrot-ceiling"",""parrot-croissant"",""parrot-deploy"",""party-elephant"",""partyblob"",""paw-wave"",""perfect-ads"",""period"",""phantom"",""pi"",""pikachu-wave"",""pineapplewhip"",""pinkheart"",""pizza-party"",""pizza-slide"",""pizza-spin2"",""please"",""please_cat"",""pooh-dance"",""pool"",""power"",""prettyplease"",""pride-love"",""proud-cry"",""psy"",""pudding"",""pug"",""pusheen-dance"",""pusheen-lunch-1"",""pusheen-lunch-2"",""pusheen-lunch-3"",""pusheen-lunch-4"",""pusheen-lunch-5"",""queen"",""quokka"",""redcube"",""ride-away"",""rocks"",""roo-wp"",""rose-colored-glasses"",""ruby-gem"",""salty"",""salute1"",""sanitizer"",""sarcastic-clap"",""sassy-0"",""school-lunch"",""semla"",""shaggy"",""shaka_brah"",""shake-fist"",""shakes-fist"",""short-people"",""shorty"",""sister-sister"",""skip"",""sleepy-bird"",""sleepyhoney"",""smash"",""smore-1"",""sneak"",""so-lost"",""solarsystem_earth"",""solarsystem_jupiter"",""solarsystem_mars"",""solarsystem_mercury"",""solarsystem_neptune"",""solarsystem_pluto"",""solarsystem_saturn"",""solarsystem_sun"",""solarsystem_uranus"",""solarsystem_venus"",""sonic-dance"",""soy-sauce-2"",""spidey-senses"",""stay_home_parrot"",""stitch"",""stop-1"",""sundae"",""sushi-dance"",""sutro"",""tattoo"",""teddy"",""thank-you-2"",""thank-you-3"",""the-rock"",""theoffice"",""there-there"",""this-is-fine-melt"",""thor-dance"",""thriller-dance"",""timesheets1"",""tired"",""train1"",""train3"",""trashbag2"",""tribute"",""ty"",""ugh"",""under-construction"",""unicorn-flying"",""waldo"",""wash-hands"",""watchingyou"",""welcome-g4sb"",""wfh-uniform"",""wfh_parrot"",""whiteboard"",""wip"",""witnessprotection"",""wrecking-ball"",""yay-1"",""yes-blob"",""yikes-1"",""you-tried"",""zen""]","[]"
"Graham Heath",444,67,"[""007"",""2-years"",""3-years"",""300"",""4-years"",""a-jedi"",""ack"",""ackbar"",""adamsben"",""agreed"",""aim"",""allthethings"",""alttp"",""alttp-bg"",""alttp-center"",""alttp-left"",""alttp-right"",""angular"",""angularjs"",""approved"",""axolotl"",""axolotl-piano"",""a_xbox"",""baby-beard"",""backslash"",""bacon-2"",""badger"",""ballpit"",""banana-peel"",""banjo"",""bat-signal"",""battlecruiser"",""beachball"",""beavis"",""bender"",""benjamin-adding-machine"",""bespin"",""beyblade"",""beyblade-spinning"",""black-lives-matter-marquee"",""block-0"",""block-1"",""block-2"",""bloody-marry"",""blue"",""blue-shell"",""blueberries"",""bobby"",""boogie"",""boq"",""boxer"",""bravo"",""broccoli-2"",""broken-image"",""bug-killer"",""bulletbill"",""bun-beard"",""butthead"",""b_xbox"",""caipirinha"",""canada-goose"",""carmen-sandiego"",""cartman-2"",""cc"",""chess"",""chi-l"",""chi-r"",""chicago"",""chicago-forever"",""chicago-style"",""chili-b"",""chin-scratch"",""chocobo"",""chowder"",""cig"",""circle_playstation"",""click"",""coin"",""coke"",""communism"",""companioncube"",""connect4"",""coolio"",""coolio-old"",""crickets"",""critique"",""crutches"",""cupanoodles"",""dagobah"",""darkwing-duck"",""dastardly"",""death-star-go-boom"",""death_star"",""deep-dish"",""democrat"",""deviled-egg"",""dharma"",""dickens"",""diffstacker"",""dinosaur-2"",""dinosaur-3"",""dinosaur-ani"",""discord"",""disintegration"",""dog-lick"",""donald"",""dont-at-me"",""dont-panic"",""donut-simpsons"",""dslr"",""dung"",""edgar-allen-bro"",""eff"",""einstein"",""ellipsis"",""emily"",""emily-2"",""emily-3"",""emily-sad"",""eminem"",""empire"",""endor"",""eor"",""equals"",""eureka"",""excellent-anim"",""exploration"",""facehugger"",""fedora"",""fernet"",""fire-buddy"",""fire-flower"",""fire-lttp"",""firebat"",""firefox"",""fish-stick"",""fishing-rod"",""fisted"",""fisticuffs"",""forever-alone"",""forwardslash"",""frank-lloyd-wright"",""french_75"",""friday"",""ftfy"",""g2g"",""garbage"",""gasp"",""gbus-1"",""gbus-2"",""gerrbat"",""ghost-gibs"",""gir"",""git"",""glasses-beard"",""glitch"",""goal"",""gone-fishin"",""gone-fishin-black"",""gong"",""googly-eye"",""googly-eye-2"",""goro"",""got-it"",""graham"",""gravy"",""green"",""green-boat"",""green-shell"",""gregor-mendel"",""grin-link"",""grinch"",""gulp"",""hackaday"",""hal_9000"",""han-solo"",""hay"",""he-man"",""heads"",""heath"",""heath-1"",""heath-2"",""heath-3"",""heath-4"",""hillary2"",""ho-ho-ho"",""hoth"",""html5"",""hulk"",""hurray"",""iced-tea"",""illinois"",""imperial-white-on-black"",""jack"",""jail"",""james-tinsley"",""jane-austen"",""javascript"",""jedi"",""jelly"",""jinx"",""joes-badge"",""kek"",""kettle"",""koolaid"",""kowtow"",""kuchi-kopi"",""kyle"",""leslie"",""lgtelenas"",""lgtj"",""light-saber1"",""light-saber2"",""light-saber3"",""light-saber4"",""lint"",""llap"",""lol-wut"",""loosing-it"",""louise"",""love-beard"",""luke"",""luke-legos"",""m-lady"",""magnifying-glass"",""mango"",""margarita-2"",""mario-kart"",""mario-kart-leftfacing"",""mario-mushroom"",""marklar"",""mauve"",""maybe"",""maybee"",""member"",""member2"",""meta"",""metroid"",""mimosa"",""mind-blown-trooper"",""mjolnir-2"",""mmm"",""mojito"",""monocle"",""monocle-2"",""monopoly"",""morton-salt"",""moscow-mule"",""mount"",""music-block"",""nailed-it"",""navi"",""neat"",""neato-bandito"",""necro"",""needs_more_cow_bell"",""nevermind"",""nin"",""nit"",""no-communism"",""no-left-turn"",""no-mouth"",""no-right-turn"",""no-style"",""nolan"",""noodles"",""noodles-from-gorillaz"",""nudge"",""nuke"",""oakie-doke"",""obi-vs-vader"",""obocohc"",""ofreeper"",""old_fashioned"",""orange"",""oreo-cookie"",""ouch"",""padme"",""pan2"",""pants"",""parrot-jedi"",""parrot-sith"",""parrot-troll"",""party-cat"",""party_for_one"",""peacock"",""pepper-bug-dance"",""petri"",""petri-2"",""pew-pew"",""pickle-rick"",""pickle-rick-ani"",""piglet"",""pillory"",""pipe-beard"",""pirate-beard"",""plague_mask"",""poe"",""poe-bro"",""poncho"",""poof"",""pooh-bear"",""pot"",""powerbook-duck"",""pull_hair_out"",""puppy-licks"",""purple"",""pylon"",""rbg"",""react"",""rebels"",""red"",""red-balloon"",""red-flag"",""red-shell"",""redacted"",""redux"",""reeses"",""reeses-pieces"",""remote"",""republican"",""riddler"",""right"",""rip-headstone"",""robotic-lungs"",""robotic-lungs-2"",""ronald-mcdonald"",""roygbp"",""rubber-duck-golden"",""rubber_duckie"",""ruby"",""sadpanda"",""sandpaper"",""santa-hat"",""santa-is-not-scary"",""sarcastaball"",""sarcastic"",""sausage"",""scream-the-movie"",""screwdriver"",""scv"",""sherlock"",""shh"",""shudder"",""silver-lining"",""simone"",""snakeboy"",""snark"",""snes"",""snoopy"",""socialism"",""solidarity-black-lives-matter-fist"",""sorry"",""sourdough"",""soy-sauce"",""splat"",""square-peg-round-hole"",""square_playstation"",""ssh"",""stamp"",""stamp-approved"",""stan"",""star-wars"",""starbucks"",""static-a"",""static-b"",""static-c"",""stove"",""stove-2"",""stove-3"",""stove-4"",""submitted"",""suit-up"",""suitcase"",""sully"",""svedka"",""tails"",""taoism"",""tatooine"",""teapot"",""tetris"",""the-diamond-of-pantheos"",""the-ramones-seal"",""the-simpsons"",""the-triangle-of-zinthar"",""thequeen"",""theramones"",""thinking-batman"",""thoreau"",""tigger"",""toast"",""token"",""towelie"",""triangle_playstation"",""tribble"",""triforce"",""triforceza"",""trollji"",""troopers"",""trout"",""trucker-hat"",""true"",""trump2"",""tumble-weed"",""two-cents"",""ugly-beard"",""uncle-sam"",""urkel"",""vault-boy"",""vehicle"",""vodka"",""vodka_and_cranberry"",""vote"",""vs-street-fighter"",""vue"",""wacky"",""wallet"",""warp"",""watching"",""water-cooler"",""west-covina-california-it-happens-to-be-where-josh-lives-but-that's-not-why-im-here"",""where-in-the-world-is-carmen-sandiego"",""white-space"",""wilson"",""winner"",""wish"",""wishbone"",""x_playstation"",""x_xbox"",""yamato"",""yas"",""yavin-iv"",""yawn"",""yellow"",""yellow-black-lives-matter"",""yoda-2"",""yoda-baby"",""yoda-baby-egg"",""yoda-baby-looks-up-to-you"",""you-get-me"",""yoyo"",""yup"",""y_xbox"",""zergling""]","[""above"",""benny-boo-boo-boo-boo-boo"",""cabbage"",""carleeb"",""china-has-a-flag"",""cigarette"",""cloud-strategy"",""creative-commons"",""cybage"",""death-star"",""diamond-of-pantheos"",""diff-stacker"",""dog-licks"",""dotdotdot-anim"",""egg-deviled"",""eggsalad"",""fishing"",""fishing-b"",""fist-bump"",""flat_cat"",""flower"",""google-burger"",""grape"",""gserve"",""hal"",""if-you-take-my-meaning-sir"",""im-lovin-it"",""imperial"",""jerk-mode"",""kekw"",""lgtjane"",""lgtm"",""live-long-and-prosper"",""looking"",""looking-monocle"",""mendel"",""need-a-light"",""never-mind-me"",""oogie-boogie"",""oreo"",""petridish"",""pirate-baby"",""pirate-dad"",""plus2"",""rga1"",""rga2"",""rga3"",""rubber-stamp"",""salt-2"",""saltwater-taffy"",""sattfield"",""sauce"",""sf-gg"",""shame-stocks"",""spumoni"",""stocks"",""t-bone"",""thank-you"",""the-queen"",""thinking-thunk"",""thumbs-up"",""tip-of-the-hat"",""triangle-of-zinthar"",""uncle_sam"",""whitespace"",""xmas"",""xmas-dude""]"